Assignment/Part_2/fsm.vcd
$date
	Mon Jan  2 11:25:31 2023
$end
$version
	ModelSim Version 2019.4
$end
$timescale
	1ns
$end

$scope module tbench_top $end
$var reg 1 ! clk $end
$var reg 1 " rst $end
$var reg 16 # coin_in [15:0] $end
$var reg 2 $ button_in [1:0] $end
$var reg 2 % beverage_out [1:0] $end
$var reg 16 & change_out [15:0] $end

$scope module t1 $end
$upscope $end

$scope module DUT $end
$var parameter 3 ' add_coin $end
$var parameter 3 ( water $end
$var parameter 3 ) soda $end
$var parameter 3 * change $end
$var parameter 3 + credit0 $end
$var parameter 3 , wait_water $end
$var parameter 3 - wait_soda $end
$var reg 16 . count_water [15:0] $end
$var reg 16 / count_soda [15:0] $end
$var reg 16 0 count_no_money [15:0] $end
$var reg 16 1 count_change [15:0] $end
$var reg 16 2 count_no_change [15:0] $end

$scope unknown ch1_instance $end
$var integer 32 3 p0ATCT $end
$var integer 32 4 p1ATCT $end
$var integer 32 5 p2ATCT $end
$var integer 32 6 p3ATCT $end
$var integer 32 7 p4ATCT $end
$var integer 32 8 p0AFCT $end
$var integer 32 9 p1AFCT $end
$var integer 32 : p2AFCT $end
$var integer 32 ; p3AFCT $end
$var integer 32 < p4AFCT $end
$var integer 32 = p0ATCF $end
$var integer 32 > p1ATCF $end
$var integer 32 ? p2ATCF $end
$var integer 32 @ p3ATCF $end
$var integer 32 A p4ATCF $end
$var integer 32 B p0AFCF $end
$var integer 32 C p1AFCF $end
$var integer 32 D p2AFCF $end
$var integer 32 E p3AFCF $end
$var integer 32 F p4AFCF $end
$upscope $end
$upscope $end

$scope module intf $end
$var wire 1 G clk $end
$var wire 1 H rst $end
$var reg 16 I coin_in [15:0] $end
$var reg 2 J button_in [1:0] $end
$var reg 16 K change_out [15:0] $end
$var reg 2 L beverage_out [1:0] $end
$var reg 3 M state [2:0] $end
$var reg 16 N c [15:0] $end

$scope unknown dut $end
$upscope $end
$upscope $end
$upscope $end
$enddefinitions $end
#0
$dumpvars
0!
1"
bx #
bx $
bx %
bx &
bx I
bx J
bx K
b0 L
b0 M
b0 N
b0 .
b0 /
b0 0
b0 1
b0 2
b0 '
b1 (
b10 )
b11 *
b100 +
b101 ,
b110 -
b0 3
b0 4
b0 5
b0 6
b0 7
b0 8
b0 9
b0 :
b0 ;
b0 <
b0 =
b0 >
b0 ?
b0 @
b0 A
b0 B
b0 C
b0 D
b0 E
b0 F
1H
0G
$end
#5
1!
0"
1G
0H
b1 0
#10
0!
0G
b0 I
b11 J
#15
1!
1G
b10 0
b1 C
b1 B
b1 5
#20
0!
0G
#25
1!
1G
b11 0
b10 C
b10 B
b10 5
#30
0!
0G
b1010 I
b0 J
#35
1!
1G
b1010 N
b100 0
b11 C
b11 B
b11 5
#40
0!
0G
b10100 I
#45
1!
1G
b11110 N
b101 0
b100 C
b100 B
b100 5
#50
0!
0G
b0 I
b11 J
#55
1!
1G
b101 C
b101 B
b101 5
#60
0!
0G
b1 J
#65
1!
1G
b101 M
b110 C
b110 B
b1 :
#70
0!
0G
b11 J
#75
1!
1G
b1 D
b111 C
b111 B
#80
0!
0G
b1 J
#85
1!
1G
b1 M
b10 D
b1000 C
b1000 B
#90
0!
0G
#95
1!
1G
b1 .
b0 N
b1 L
b11 M
b11 D
b1001 C
b1001 B
#100
0!
0G
#105
1!
1G
b0 L
b0 M
b100 D
b1010 C
b1 3
#110
0!
0G
b1010 I
b0 J
#115
1!
1G
b1010 N
b110 0
b1011 C
b1010 B
b10 :
#120
0!
0G
#125
1!
1G
b10100 N
b111 0
b1100 C
b1011 B
b110 5
#130
0!
0G
b0 I
b11 J
#135
1!
1G
b1000 0
b1101 C
b1100 B
b111 5
#140
0!
0G
b0 J
#145
1!
1G
b1001 0
b1110 C
b1101 B
b1000 5
#150
0!
0G
b10100 I
#155
1!
1G
b101000 N
b1010 0
b1111 C
b1110 B
b1001 5
#160
0!
0G
b0 I
#165
1!
1G
b10000 C
b1111 B
b1010 5
#170
0!
0G
b1010 I
#175
1!
1G
b110010 N
b10001 C
b10000 B
b11 :
#180
0!
0G
b0 I
b1 J
#185
1!
1G
b101 M
b10010 C
b10001 B
b100 :
#190
0!
0G
b0 J
#195
1!
1G
b101 D
b10011 C
b10010 B
#200
0!
0G
b10100 I
#205
1!
1G
b1 M
b110 D
b10100 C
b10011 B
#210
0!
0G
b0 I
b11 J
#215
1!
1G
b10 .
b10100 N
b1 L
b11 M
b111 D
b10101 C
b10100 B
#220
0!
0G
b10100 I
b0 J
#225
1!
1G
b0 L
b1000 D
b10110 C
b10 3
#230
0!
0G
b1010 I
#235
1!
1G
b1001 D
b10111 C
b10101 B
#240
0!
0G
#245
1!
1G
b10100 K
b100 M
b1010 D
b11000 C
b10110 B
#250
0!
0G
b0 I
b11 J
#255
1!
1G
b1 F
b1011 D
b11001 C
b10111 B
b1 6
#260
0!
0G
b1 J
#265
1!
1G
b1 1
b0 N
b0 M
b0 K
b10 F
b1100 D
b11010 C
b11000 B
b10 6
#270
0!
0G
b11 J
#275
1!
1G
b1011 0
b1 E
b11011 C
b11001 B
b1 <
b101 :
#280
0!
0G
b0 J
#285
1!
1G
b1100 0
b10 E
b11100 C
b11010 B
b10 <
b1011 5
#290
0!
0G
b1 J
#295
1!
1G
b1101 0
b11 E
b11101 C
b11011 B
b11 <
b1100 5
#300
0!
0G
b1010 I
b0 J
#305
1!
1G
b1010 N
b1110 0
b100 E
b11110 C
b11100 B
b100 <
b1101 5
#310
0!
0G
b10100 I
#315
1!
1G
b11110 N
b1111 0
b101 E
b11111 C
b11101 B
b101 <
b1110 5
#320
0!
0G
b0 I
b11 J
#325
1!
1G
b110 E
b100000 C
b11110 B
b110 <
b1111 5
#330
0!
0G
b0 J
#335
1!
1G
b111 E
b100001 C
b11111 B
b111 <
b110 :
#340
0!
0G
b1 J
#345
1!
1G
b101 M
b1000 E
b100010 C
b100000 B
b1000 <
b111 :
#350
0!
0G
#355
1!
1G
b1001 E
b1101 D
b100011 C
b100001 B
b1001 <
#360
0!
0G
b0 J
#365
1!
1G
b1 M
b1010 E
b1110 D
b100100 C
b100010 B
b1010 <
#370
0!
0G
b1010 I
#375
1!
1G
b11 .
b0 N
b1 L
b11 M
b1011 E
b1111 D
b100101 C
b100011 B
b1011 <
#380
0!
0G
b0 I
b1 J
#385
1!
1G
b0 L
b0 M
b1100 E
b10000 D
b100110 C
b1100 <
b11 3
#390
0!
0G
b10100 I
b0 J
#395
1!
1G
b10100 N
b10000 0
b1101 E
b100111 C
b100100 B
b1101 <
b1000 :
#400
0!
0G
b1010 I
#405
1!
1G
b11110 N
b10001 0
b1110 E
b101000 C
b100101 B
b1110 <
b10000 5
#410
0!
0G
b0 I
b11 J
#415
1!
1G
b1111 E
b101001 C
b100110 B
b1111 <
b10001 5
#420
0!
0G
b1010 I
b0 J
#425
1!
1G
b101000 N
b10000 E
b101010 C
b100111 B
b10000 <
b1001 :
#430
0!
0G
b0 I
#435
1!
1G
b10001 E
b101011 C
b101000 B
b10001 <
b1010 :
#440
0!
0G
#445
1!
1G
b10010 E
b101100 C
b101001 B
b10010 <
b1011 :
#450
0!
0G
b1010 I
#455
1!
1G
b110010 N
b10011 E
b101101 C
b101010 B
b10011 <
b1100 :
#460
0!
0G
b10100 I
#465
1!
1G
b1000110 N
b10100 E
b101110 C
b101011 B
b10100 <
b1101 :
#470
0!
0G
#475
1!
1G
b1011010 N
b10101 E
b101111 C
b101100 B
b10101 <
b1110 :
#480
0!
0G
#485
1!
1G
b1101110 N
b10110 E
b110000 C
b101101 B
b10110 <
b1111 :
#490
0!
0G
b1010 I
#495
1!
1G
b1111000 N
b10111 E
b110001 C
b101110 B
b10111 <
b10000 :
#500
0!
0G
b0 I
#505
1!
1G
b11000 E
b110010 C
b101111 B
b11000 <
b10001 :
#510
0!
0G
#515
1!
1G
b11001 E
b110011 C
b110000 B
b11001 <
b10010 :
#520
0!
0G
#525
1!
1G
b11010 E
b110100 C
b110001 B
b11010 <
b10011 :
#530
0!
0G
b11 J
#535
1!
1G
b110 M
b11011 E
b110101 C
b110010 B
b11011 <
b10100 :
#540
0!
0G
#545
1!
1G
b11100 E
b10001 D
b110110 C
b110011 B
b11100 <
#550
0!
0G
b10100 I
b0 J
#555
1!
1G
b10 M
b11101 E
b10010 D
b110111 C
b110100 B
b11101 <
#560
0!
0G
b0 I
b1 J
#565
1!
1G
b1 /
b1000110 N
b11 L
b11 M
b11110 E
b10011 D
b111000 C
b110101 B
b11110 <
#570
0!
0G
b11 J
#575
1!
1G
b1 2
b0 L
b0 M
b11111 E
b10100 D
b110110 B
b11111 <
b1 4
#580
0!
0G
b10100 I
b0 J
#585
1!
1G
b1011010 N
b100000 E
b111001 C
b110111 B
b10101 :
b1 7
#590
0!
0G
b1010 I
#595
1!
1G
b1100100 N
b100001 E
b111010 C
b111000 B
b100000 <
b10110 :
#600
0!
0G
b0 I
#605
1!
1G
b100010 E
b111011 C
b111001 B
b100001 <
b10111 :
#610
0!
0G
b1010 I
#615
1!
1G
b1101110 N
b100011 E
b111100 C
b111010 B
b100010 <
b11000 :
#620
0!
0G
b10100 I
#625
1!
1G
b10000010 N
b100100 E
b111101 C
b111011 B
b100011 <
b11001 :
#630
0!
0G
b0 I
b1 J
#635
1!
1G
b101 M
b100101 E
b111110 C
b111100 B
b100100 <
b11010 :
#640
0!
0G
b0 J
#645
1!
1G
b100110 E
b10101 D
b111111 C
b111101 B
b100101 <
#650
0!
0G
b11 J
#655
1!
1G
b1 M
b100111 E
b10110 D
b1000000 C
b111110 B
b100110 <
#660
0!
0G
b0 J
#665
1!
1G
b100 .
b1100100 N
b1 L
b11 M
b101000 E
b10111 D
b1000001 C
b111111 B
b100111 <
#670
0!
0G
b11 J
#675
1!
1G
b10 2
b0 L
b0 M
b101001 E
b11000 D
b1000010 C
b101000 <
b100 3
#680
0!
0G
#685
1!
1G
b110 M
b101010 E
b1000011 C
b1000000 B
b11011 :
b10 7
#690
0!
0G
b1010 I
b0 J
#695
1!
1G
b101011 E
b11001 D
b1000100 C
b1000001 B
b101001 <
#700
0!
0G
b0 I
#705
1!
1G
b10 M
b101100 E
b11010 D
b1000101 C
b1000010 B
b101010 <
#710
0!
0G
b11 J
#715
1!
1G
b10 /
b110010 N
b11 L
b11 M
b101101 E
b11011 D
b1000110 C
b1000011 B
b101011 <
#720
0!
0G
b0 J
#725
1!
1G
b11 2
b0 L
b0 M
b101110 E
b11100 D
b1000100 B
b101100 <
b10 4
#730
0!
0G
b10100 I
#735
1!
1G
b1000110 N
b101111 E
b1000111 C
b1000101 B
b11100 :
b11 7
#740
0!
0G
b0 I
b11 J
#745
1!
1G
b110 M
b110000 E
b1001000 C
b1000110 B
b101101 <
b11101 :
#750
0!
0G
#755
1!
1G
b110001 E
b11101 D
b1001001 C
b1000111 B
b101110 <
#760
0!
0G
b1 J
#765
1!
1G
b10 M
b110010 E
b11110 D
b1001010 C
b1001000 B
b101111 <
#770
0!
0G
b0 J
#775
1!
1G
b11 /
b10100 N
b11 L
b11 M
b110011 E
b11111 D
b1001011 C
b1001001 B
b110000 <
#780
0!
0G
b11 J
#785
1!
1G
b0 L
b110100 E
b100000 D
b1001010 B
b110001 <
b11 4
#790
0!
0G
b0 J
#795
1!
1G
b110101 E
b100001 D
b1001100 C
b1001011 B
b110010 <
#800
0!
0G
#805
1!
1G
b10100 K
b100 M
b110110 E
b100010 D
b1001101 C
b1001100 B
b110011 <
#810
0!
0G
#815
1!
1G
b11 F
b100011 D
b1001110 C
b1001101 B
b11 6
#820
0!
0G
b10100 I
#825
1!
1G
b10 1
b0 N
b0 M
b0 K
b100 F
b100100 D
b1001111 C
b1001110 B
b100 6
#830
0!
0G
b1010 I
#835
1!
1G
b1010 N
b10010 0
b110111 E
b1010000 C
b1001111 B
b110100 <
b11110 :
#840
0!
0G
b0 I
#845
1!
1G
b10011 0
b111000 E
b1010001 C
b1010000 B
b110101 <
b10010 5
#850
0!
0G
#855
1!
1G
b10100 0
b111001 E
b1010010 C
b1010001 B
b110110 <
b10011 5
#860
0!
0G
#865
1!
1G
b10101 0
b111010 E
b1010011 C
b1010010 B
b110111 <
b10100 5
#870
0!
0G
#875
1!
1G
b10110 0
b111011 E
b1010100 C
b1010011 B
b111000 <
b10101 5
#880
0!
0G
b1010 I
#885
1!
1G
b10100 N
b10111 0
b111100 E
b1010101 C
b1010100 B
b111001 <
b10110 5
#890
0!
0G
b0 I
b11 J
#895
1!
1G
b11000 0
b111101 E
b1010110 C
b1010101 B
b111010 <
b10111 5
#900
0!
0G
#905
1!
1G
b11001 0
b111110 E
b1010111 C
b1010110 B
b111011 <
b11000 5
#910
0!
0G
b1 J
#915
1!
1G
b11010 0
b111111 E
b1011000 C
b1010111 B
b111100 <
b11001 5
#920
0!
0G
#925
1!
1G
b11011 0
b1000000 E
b1011001 C
b1011000 B
b111101 <
b11010 5
#930
0!
0G
b10100 I
b0 J
#935
1!
1G
b101000 N
b11100 0
b1000001 E
b1011010 C
b1011001 B
b111110 <
b11011 5
#940
0!
0G
b1010 I
#945
1!
1G
b110010 N
b1000010 E
b1011011 C
b1011010 B
b111111 <
b11100 5
#950
0!
0G
b0 I
#955
1!
1G
b1000011 E
b1011100 C
b1011011 B
b1000000 <
b11111 :
#960
0!
0G
b11 J
#965
1!
1G
b110 M
b1000100 E
b1011101 C
b1011100 B
b1000001 <
b100000 :
#970
0!
0G
b1 J
#975
1!
1G
b1000101 E
b100101 D
b1011110 C
b1011101 B
b1000010 <
#980
0!
0G
b11 J
#985
1!
1G
b10 M
b1000110 E
b100110 D
b1011111 C
b1011110 B
b1000011 <
#990
0!
0G
#995
1!
1G
b100 /
b0 N
b11 L
b11 M
b1000111 E
b100111 D
b1100000 C
b1011111 B
b1000100 <
#1000
0!
0G
b10100 I
b0 J
#1005
1!
1G
b0 L
b0 M
b1001000 E
b101000 D
b1100000 B
b1000101 <
b100 4
#1010
0!
0G
b1010 I
#1015
1!
1G
b1010 N
b11101 0
b1001001 E
b1100001 C
b1100001 B
b1000110 <
b100001 :
#1020
0!
0G
b0 I
#1025
1!
1G
b11110 0
b1001010 E
b1100010 C
b1100010 B
b1000111 <
b11101 5
#1030
0!
0G
b10100 I
#1035
1!
1G
b11110 N
b11111 0
b1001011 E
b1100011 C
b1100011 B
b1001000 <
b11110 5
#1040
0!
0G
b0 I
b1 J
#1045
1!
1G
b101 M
b1001100 E
b1100100 C
b1100100 B
b1001001 <
b11111 5
#1050
0!
0G
#1055
1!
1G
b1001101 E
b101001 D
b1100101 C
b1100101 B
b1001010 <
#1060
0!
0G
b11 J
#1065
1!
1G
b1 M
b1001110 E
b101010 D
b1100110 C
b1100110 B
b1001011 <
#1070
0!
0G
#1075
1!
1G
b101 .
b0 N
b1 L
b11 M
b1001111 E
b101011 D
b1100111 C
b1100111 B
b1001100 <
#1080
0!
0G
b0 J
#1085
1!
1G
b0 L
b0 M
b1010000 E
b101100 D
b1101000 C
b1001101 <
b101 3
#1090
0!
0G
b1010 I
#1095
1!
1G
b1010 N
b100000 0
b1010001 E
b1101001 C
b1101000 B
b1001110 <
b100010 :
#1100
0!
0G
#1105
1!
1G
b10100 N
b100001 0
b1010010 E
b1101010 C
b1101001 B
b1001111 <
b100000 5
#1110
0!
0G
#1115
1!
1G
b11110 N
b100010 0
b1010011 E
b1101011 C
b1101010 B
b1010000 <
b100001 5
#1120
0!
0G
b0 I
b11 J
#1125
1!
1G
b1010100 E
b1101100 C
b1101011 B
b1010001 <
b100010 5
#1130
0!
0G
b1010 I
b0 J
#1135
1!
1G
b101000 N
b1010101 E
b1101101 C
b1101100 B
b1010010 <
b100011 :
#1140
0!
0G
b0 I
b1 J
#1145
1!
1G
b101 M
b1010110 E
b1101110 C
b1101101 B
b1010011 <
b100100 :
#1150
0!
0G
b10100 I
b0 J
#1155
1!
1G
b1010111 E
b101101 D
b1101111 C
b1101110 B
b1010100 <
#1160
0!
0G
b0 I
b11 J
#1165
1!
1G
b1 M
b1011000 E
b101110 D
b1110000 C
b1101111 B
b1010101 <
#1170
0!
0G
b1010 I
b0 J
#1175
1!
1G
b110 .
b1010 N
b1 L
b11 M
b1011001 E
b101111 D
b1110001 C
b1110000 B
b1010110 <
#1180
0!
0G
b10100 I
#1185
1!
1G
b0 L
b1011010 E
b110000 D
b1110010 C
b1010111 <
b110 3
#1190
0!
0G
#1195
1!
1G
b1011011 E
b110001 D
b1110011 C
b1110001 B
b1011000 <
#1200
0!
0G
#1205
1!
1G
b1010 K
b100 M
b1011100 E
b110010 D
b1110100 C
b1110010 B
b1011001 <
#1210
0!
0G
#1215
1!
1G
b101 F
b110011 D
b1110101 C
b1110011 B
b101 6
#1220
0!
0G
#1225
1!
1G
b11 1
b0 N
b0 M
b0 K
b110 F
b110100 D
b1110110 C
b1110100 B
b110 6
#1230
0!
0G
b0 I
#1235
1!
1G
b100011 0
b1011101 E
b1110111 C
b1110101 B
b1011010 <
b100101 :
#1240
0!
0G
b1010 I
#1245
1!
1G
b1010 N
b100100 0
b1011110 E
b1111000 C
b1110110 B
b1011011 <
b100011 5
#1250
0!
0G
b10100 I
#1255
1!
1G
b11110 N
b100101 0
b1011111 E
b1111001 C
b1110111 B
b1011100 <
b100100 5
#1260
0!
0G
b0 I
#1265
1!
1G
b1100000 E
b1111010 C
b1111000 B
b1011101 <
b100101 5
#1270
0!
0G
b1010 I
#1275
1!
1G
b101000 N
b1100001 E
b1111011 C
b1111001 B
b1011110 <
b100110 :
#1280
0!
0G
#1285
1!
1G
b110010 N
b1100010 E
b1111100 C
b1111010 B
b1011111 <
b100111 :
#1290
0!
0G
b0 I
#1295
1!
1G
b1100011 E
b1111101 C
b1111011 B
b1100000 <
b101000 :
#1300
0!
0G
b1010 I
#1305
1!
1G
b111100 N
b1100100 E
b1111110 C
b1111100 B
b1100001 <
b101001 :
#1310
0!
0G
b0 I
b1 J
#1315
1!
1G
b101 M
b1100101 E
b1111111 C
b1111101 B
b1100010 <
b101010 :
#1320
0!
0G
b10100 I
b0 J
#1325
1!
1G
b1100110 E
b110101 D
b10000000 C
b1111110 B
b1100011 <
#1330
0!
0G
b1010 I
#1335
1!
1G
b1 M
b1100111 E
b110110 D
b10000001 C
b1111111 B
b1100100 <
#1340
0!
0G
b0 I
b11 J
#1345
1!
1G
b111 .
b11110 N
b1 L
b11 M
b1101000 E
b110111 D
b10000010 C
b10000000 B
b1100101 <
#1350
0!
0G
b1010 I
b0 J
#1355
1!
1G
b100 2
b0 L
b0 M
b1101001 E
b111000 D
b10000011 C
b1100110 <
b111 3
#1360
0!
0G
b0 I
#1365
1!
1G
b1101010 E
b10000100 C
b10000001 B
b101011 :
b100 7
#1370
0!
0G
b11 J
#1375
1!
1G
b1101011 E
b10000101 C
b10000010 B
b1100111 <
b101100 :
#1380
0!
0G
b10100 I
b0 J
#1385
1!
1G
b110010 N
b1101100 E
b10000110 C
b10000011 B
b1101000 <
b101101 :
#1390
0!
0G
b0 I
#1395
1!
1G
b1101101 E
b10000111 C
b10000100 B
b1101001 <
b101110 :
#1400
0!
0G
b10100 I
#1405
1!
1G
b1000110 N
b1101110 E
b10001000 C
b10000101 B
b1101010 <
b101111 :
#1410
0!
0G
#1415
1!
1G
b1011010 N
b1101111 E
b10001001 C
b10000110 B
b1101011 <
b110000 :
#1420
0!
0G
b0 I
b11 J
#1425
1!
1G
b110 M
b1110000 E
b10001010 C
b10000111 B
b1101100 <
b110001 :
#1430
0!
0G
b1010 I
b0 J
#1435
1!
1G
b1110001 E
b111001 D
b10001011 C
b10001000 B
b1101101 <
#1440
0!
0G
b0 I
b11 J
#1445
1!
1G
b10 M
b1110010 E
b111010 D
b10001100 C
b10001001 B
b1101110 <
#1450
0!
0G
b0 J
#1455
1!
1G
b101 /
b101000 N
b11 L
b11 M
b1110011 E
b111011 D
b10001101 C
b10001010 B
b1101111 <
#1460
0!
0G
b1 J
#1465
1!
1G
b101 2
b0 L
b0 M
b1110100 E
b111100 D
b10001011 B
b1110000 <
b101 4
#1470
0!
0G
b0 J
#1475
1!
1G
b1110101 E
b10001110 C
b10001100 B
b110010 :
b101 7
#1480
0!
0G
b1 J
#1485
1!
1G
b101 M
b1110110 E
b10001111 C
b10001101 B
b1110001 <
b110011 :
#1490
0!
0G
#1495
1!
1G
b1110111 E
b111101 D
b10010000 C
b10001110 B
b1110010 <
#1500
0!
0G
b11 J
#1505
1!
1G
b1 M
b1111000 E
b111110 D
b10010001 C
b10001111 B
b1110011 <
#1510
0!
0G
#1515
1!
1G
b1000 .
b1010 N
b1 L
b11 M
b1111001 E
b111111 D
b10010010 C
b10010000 B
b1110100 <
#1520
0!
0G
b10100 I
b0 J
#1525
1!
1G
b0 L
b1111010 E
b1000000 D
b10010011 C
b1110101 <
b1000 3
#1530
0!
0G
b0 I
#1535
1!
1G
b1111011 E
b1000001 D
b10010100 C
b10010001 B
b1110110 <
#1540
0!
0G
b10100 I
#1545
1!
1G
b1010 K
b100 M
b1111100 E
b1000010 D
b10010101 C
b10010010 B
b1110111 <
#1550
0!
0G
b0 I
b1 J
#1555
1!
1G
b111 F
b1000011 D
b10010110 C
b10010011 B
b111 6
#1560
0!
0G
b1010 I
b0 J
#1565
1!
1G
b100 1
b0 N
b0 M
b0 K
b1000 F
b1000100 D
b10010111 C
b10010100 B
b1000 6
#1570
0!
0G
b10100 I
#1575
1!
1G
b10100 N
b100110 0
b1111101 E
b10011000 C
b10010101 B
b1111000 <
b110100 :
#1580
0!
0G
b0 I
b11 J
#1585
1!
1G
b100111 0
b1111110 E
b10011001 C
b10010110 B
b1111001 <
b100110 5
#1590
0!
0G
b1 J
#1595
1!
1G
b101000 0
b1111111 E
b10011010 C
b10010111 B
b1111010 <
b100111 5
#1600
0!
0G
b10100 I
b0 J
#1605
1!
1G
b101000 N
b101001 0
b10000000 E
b10011011 C
b10011000 B
b1111011 <
b101000 5
#1610
0!
0G
b1010 I
#1615
1!
1G
b110010 N
b10000001 E
b10011100 C
b10011001 B
b1111100 <
b101001 5
#1620
0!
0G
b0 I
b11 J
#1625
1!
1G
b110 M
b10000010 E
b10011101 C
b10011010 B
b1111101 <
b110101 :
#1630
0!
0G
#1635
1!
1G
b10000011 E
b1000101 D
b10011110 C
b10011011 B
b1111110 <
#1640
0!
0G
b0 J
#1645
1!
1G
b10 M
b10000100 E
b1000110 D
b10011111 C
b10011100 B
b1111111 <
#1650
0!
0G
b10100 I
#1655
1!
1G
b110 /
b0 N
b11 L
b11 M
b10000101 E
b1000111 D
b10100000 C
b10011101 B
b10000000 <
#1660
0!
0G
b1010 I
#1665
1!
1G
b0 L
b0 M
b10000110 E
b1001000 D
b10011110 B
b10000001 <
b110 4
#1670
0!
0G
b10100 I
#1675
1!
1G
b10100 N
b101010 0
b10000111 E
b10100001 C
b10011111 B
b10000010 <
b110110 :
#1680
0!
0G
b0 I
b11 J
#1685
1!
1G
b101011 0
b10001000 E
b10100010 C
b10100000 B
b10000011 <
b101010 5
#1690
0!
0G
b1 J
#1695
1!
1G
b101100 0
b10001001 E
b10100011 C
b10100001 B
b10000100 <
b101011 5
#1700
0!
0G
b1010 I
b0 J
#1705
1!
1G
b11110 N
b101101 0
b10001010 E
b10100100 C
b10100010 B
b10000101 <
b101100 5
#1710
0!
0G
b10100 I
#1715
1!
1G
b110010 N
b10001011 E
b10100101 C
b10100011 B
b10000110 <
b101101 5
#1720
0!
0G
b0 I
b11 J
#1725
1!
1G
b110 M
b10001100 E
b10100110 C
b10100100 B
b10000111 <
b110111 :
#1730
0!
0G
b10100 I
b0 J
#1735
1!
1G
b10001101 E
b1001001 D
b10100111 C
b10100101 B
b10001000 <
#1740
0!
0G
b0 I
b1 J
#1745
1!
1G
b10 M
b10001110 E
b1001010 D
b10101000 C
b10100110 B
b10001001 <
#1750
0!
0G
b11 J
#1755
1!
1G
b111 /
b0 N
b11 L
b11 M
b10001111 E
b1001011 D
b10101001 C
b10100111 B
b10001010 <
#1760
0!
0G
b1 J
#1765
1!
1G
b0 L
b0 M
b10010000 E
b1001100 D
b10101000 B
b10001011 <
b111 4
#1770
0!
0G
b1010 I
b0 J
#1775
1!
1G
b1010 N
b101110 0
b10010001 E
b10101010 C
b10101001 B
b10001100 <
b111000 :
#1780
0!
0G
b0 I
b11 J
#1785
1!
1G
b101111 0
b10010010 E
b10101011 C
b10101010 B
b10001101 <
b101110 5
#1790
0!
0G
b0 J
#1795
1!
1G
b110000 0
b10010011 E
b10101100 C
b10101011 B
b10001110 <
b101111 5
#1800
0!
0G
b11 J
#1805
1!
1G
b110001 0
b10010100 E
b10101101 C
b10101100 B
b10001111 <
b110000 5
#1810
0!
0G
b1 J
#1815
1!
1G
b110010 0
b10010101 E
b10101110 C
b10101101 B
b10010000 <
b110001 5
#1820
0!
0G
#1825
1!
1G
b110011 0
b10010110 E
b10101111 C
b10101110 B
b10010001 <
b110010 5
#1830
0!
0G
b1010 I
b0 J
#1835
1!
1G
b10100 N
b110100 0
b10010111 E
b10110000 C
b10101111 B
b10010010 <
b110011 5
#1840
0!
0G
b0 I
b11 J
#1845
1!
1G
b110101 0
b10011000 E
b10110001 C
b10110000 B
b10010011 <
b110100 5
#1850
0!
0G
b10100 I
b0 J
#1855
1!
1G
b101000 N
b110110 0
b10011001 E
b10110010 C
b10110001 B
b10010100 <
b110101 5
#1860
0!
0G
b0 I
b1 J
#1865
1!
1G
b101 M
b10011010 E
b10110011 C
b10110010 B
b10010101 <
b110110 5
#1870
0!
0G
b10100 I
b0 J
#1875
1!
1G
b10011011 E
b1001101 D
b10110100 C
b10110011 B
b10010110 <
#1880
0!
0G
#1885
1!
1G
b1 M
b10011100 E
b1001110 D
b10110101 C
b10110100 B
b10010111 <
#1890
0!
0G
b0 I
#1895
1!
1G
b1001 .
b1010 N
b1 L
b11 M
b10011101 E
b1001111 D
b10110110 C
b10110101 B
b10011000 <
#1900
0!
0G
b11 J
#1905
1!
1G
b0 L
b10011110 E
b1010000 D
b10110111 C
b10011001 <
b1001 3
#1910
0!
0G
b1 J
#1915
1!
1G
b10011111 E
b1010001 D
b10111000 C
b10110110 B
b10011010 <
#1920
0!
0G
#1925
1!
1G
b1010 K
b100 M
b10100000 E
b1010010 D
b10111001 C
b10110111 B
b10011011 <
#1930
0!
0G
#1935
1!
1G
b1001 F
b1010011 D
b10111010 C
b10111000 B
b1001 6
#1940
0!
0G
b10100 I
b0 J
#1945
1!
1G
b101 1
b0 N
b0 M
b0 K
b1010 F
b1010100 D
b10111011 C
b10111001 B
b1010 6
#1950
0!
0G
b0 I
b1 J
#1955
1!
1G
b110111 0
b10100001 E
b10111100 C
b10111010 B
b10011100 <
b111001 :
#1960
0!
0G
b10100 I
b0 J
#1965
1!
1G
b10100 N
b111000 0
b10100010 E
b10111101 C
b10111011 B
b10011101 <
b110111 5
#1970
0!
0G
b1010 I
#1975
1!
1G
b11110 N
b111001 0
b10100011 E
b10111110 C
b10111100 B
b10011110 <
b111000 5
#1980
0!
0G
b0 I
b1 J
#1985
1!
1G
b101 M
b10100100 E
b10111111 C
b10111101 B
b10011111 <
b111001 5
#1990
0!
0G
b1010 I
b0 J
#1995
1!
1G
b10100101 E
b1010101 D
b11000000 C
b10111110 B
b10100000 <
#2000
0!
0G
b10100 I
#2005
1!
1G
b1 M
b10100110 E
b1010110 D
b11000001 C
b10111111 B
b10100001 <
#2010
0!
0G
b0 I
b1 J
#2015
1!
1G
b1010 .
b0 N
b1 L
b11 M
b10100111 E
b1010111 D
b11000010 C
b11000000 B
b10100010 <
#2020
0!
0G
#2025
1!
1G
b0 L
b0 M
b10101000 E
b1011000 D
b11000011 C
b10100011 <
b1010 3
#2030
0!
0G
#2035
1!
1G
b111010 0
b10101001 E
b11000100 C
b11000001 B
b10100100 <
b111010 :
#2040
0!
0G
b10100 I
b0 J
#2045
1!
1G
b10100 N
b111011 0
b10101010 E
b11000101 C
b11000010 B
b10100101 <
b111010 5
#2050
0!
0G
b0 I
b1 J
#2055
1!
1G
b111100 0
b10101011 E
b11000110 C
b11000011 B
b10100110 <
b111011 5
#2060
0!
0G
b11 J
#2065
1!
1G
b111101 0
b10101100 E
b11000111 C
b11000100 B
b10100111 <
b111100 5
#2070
0!
0G
b10100 I
b0 J
#2075
1!
1G
b101000 N
b111110 0
b10101101 E
b11001000 C
b11000101 B
b10101000 <
b111101 5
#2080
0!
0G
b1010 I
#2085
1!
1G
b110010 N
b10101110 E
b11001001 C
b11000110 B
b10101001 <
b111110 5
#2090
0!
0G
#2095
1!
1G
b111100 N
b10101111 E
b11001010 C
b11000111 B
b10101010 <
b111011 :
#2100
0!
0G
b0 I
b11 J
#2105
1!
1G
b110 M
b10110000 E
b11001011 C
b11001000 B
b10101011 <
b111100 :
#2110
0!
0G
#2115
1!
1G
b10110001 E
b1011001 D
b11001100 C
b11001001 B
b10101100 <
#2120
0!
0G
b1 J
#2125
1!
1G
b10 M
b10110010 E
b1011010 D
b11001101 C
b11001010 B
b10101101 <
#2130
0!
0G
b10100 I
b0 J
#2135
1!
1G
b1000 /
b1010 N
b11 L
b11 M
b10110011 E
b1011011 D
b11001110 C
b11001011 B
b10101110 <
#2140
0!
0G
b1010 I
#2145
1!
1G
b0 L
b10110100 E
b1011100 D
b11001100 B
b10101111 <
b1000 4
#2150
0!
0G
b0 I
#2155
1!
1G
b10110101 E
b1011101 D
b11001111 C
b11001101 B
b10110000 <
#2160
0!
0G
b1010 I
#2165
1!
1G
b1010 K
b100 M
b10110110 E
b1011110 D
b11010000 C
b11001110 B
b10110001 <
#2170
0!
0G
b10100 I
#2175
1!
1G
b1011 F
b1011111 D
b11010001 C
b11001111 B
b1011 6
#2180
0!
0G
b0 I
