Part_3/fsm_wo_1_2.vcd
$date
	Tue Jan  3 23:24:04 2023
$end
$version
	ModelSim Version 2019.4
$end
$timescale
	1ns
$end

$scope module tbench_top $end
$var reg 1 ! clk $end
$var reg 1 " rst $end
$var reg 16 # coin_in [15:0] $end
$var reg 2 $ button_in [1:0] $end
$var reg 2 % beverage_out [1:0] $end
$var reg 16 & change_out [15:0] $end

$scope module t1 $end
$upscope $end

$scope module DUT $end
$var parameter 3 ' add_coin $end
$var parameter 3 ( wait_water $end
$var parameter 3 ) wait_soda $end
$var parameter 3 * water $end
$var parameter 3 + soda $end
$var parameter 3 , change $end
$var parameter 3 - credit0 $end

$scope unknown ch1_instance $end
$var integer 32 . p0ATCT $end
$var integer 32 / p1ATCT $end
$var integer 32 0 p2ATCT $end
$var integer 32 1 p3ATCT $end
$var integer 32 2 p4ATCT $end
$var integer 32 3 p0AFCT $end
$var integer 32 4 p1AFCT $end
$var integer 32 5 p2AFCT $end
$var integer 32 6 p3AFCT $end
$var integer 32 7 p4AFCT $end
$var integer 32 8 p0ATCF $end
$var integer 32 9 p1ATCF $end
$var integer 32 : p2ATCF $end
$var integer 32 ; p3ATCF $end
$var integer 32 < p4ATCF $end
$var integer 32 = p0AFCF $end
$var integer 32 > p1AFCF $end
$var integer 32 ? p2AFCF $end
$var integer 32 @ p3AFCF $end
$var integer 32 A p4AFCF $end
$upscope $end
$upscope $end

$scope module intf $end
$var wire 1 B clk $end
$var wire 1 C rst $end
$var reg 16 D coin_in [15:0] $end
$var reg 2 E button_in [1:0] $end
$var reg 16 F change_out [15:0] $end
$var reg 2 G beverage_out [1:0] $end
$var reg 3 H state [2:0] $end
$var reg 16 I c [15:0] $end

$scope unknown dut $end
$upscope $end
$upscope $end
$upscope $end
$enddefinitions $end
#0
$dumpvars
0!
1"
bx #
bx $
bx %
bx &
bx D
bx E
b0 F
b0 G
b0 H
b0 I
b0 '
b1 (
b10 )
b11 *
b100 +
b101 ,
b110 -
b0 .
b0 /
b0 0
b0 1
b0 2
b0 3
b0 4
b0 5
b0 6
b0 7
b0 8
b0 9
b0 :
b0 ;
b0 <
b0 =
b0 >
b0 ?
b0 @
b0 A
1C
0B
$end
#5
1!
0"
1B
0C
b1 @
#10
0!
0B
b0 D
b11 E
#15
1!
1B
b10 @
b1 >
b1 =
b1 7
b1 0
#20
0!
0B
b1 E
#25
1!
1B
b11 @
b10 >
b10 =
b10 7
b10 0
#30
0!
0B
b1010 D
b0 E
#35
1!
1B
b1010 I
b100 @
b11 >
b11 =
b11 7
b11 0
#40
0!
0B
b10100 D
#45
1!
1B
b11110 I
b101 @
b100 >
b100 =
b100 7
b100 0
#50
0!
0B
b0 D
b11 E
#55
1!
1B
b110 @
b101 >
b101 =
b101 7
b101 0
#60
0!
0B
b110010 D
b0 E
#65
1!
1B
b1010000 I
b111 @
b110 >
b110 =
b110 7
b1 5
#70
0!
0B
b0 D
b1 E
#75
1!
1B
b1 H
b1000 @
b111 >
b111 =
b111 7
b10 5
#80
0!
0B
b110010 D
b0 E
#85
1!
1B
b1001 @
b1 ?
b1000 >
b1000 =
b1000 7
#90
0!
0B
#95
1!
1B
b11 H
b1010 @
b10 ?
b1001 >
b1001 =
b1001 7
#100
0!
0B
#105
1!
1B
b110010 I
b1 G
b101 H
b1011 @
b11 ?
b1010 >
b1010 =
b1010 7
#110
0!
0B
b1010 D
#115
1!
1B
b0 G
b0 H
b1100 @
b100 ?
b1011 >
b1011 7
b1 .
#120
0!
0B
b0 D
b11 E
#125
1!
1B
b10 H
b1101 @
b1100 >
b1011 =
b11 5
b1 2
#130
0!
0B
b1 E
#135
1!
1B
b1110 @
b101 ?
b1101 >
b1100 =
b1100 7
#140
0!
0B
b0 E
#145
1!
1B
b100 H
b1111 @
b110 ?
b1110 >
b1101 =
b1101 7
#150
0!
0B
b10100 D
#155
1!
1B
b0 I
b11 G
b101 H
b10000 @
b111 ?
b1111 >
b1110 =
b1110 7
#160
0!
0B
b0 D
b11 E
#165
1!
1B
b0 G
b0 H
b10001 @
b1000 ?
b1111 =
b1111 7
b1 /
#170
0!
0B
b1010 D
b0 E
#175
1!
1B
b1010 I
b10010 @
b10000 >
b10000 =
b10000 7
b100 5
#180
0!
0B
b110010 D
#185
1!
1B
b111100 I
b10011 @
b10001 >
b10001 =
b10001 7
b110 0
#190
0!
0B
b0 D
#195
1!
1B
b10100 @
b10010 >
b10010 =
b10010 7
b111 0
#200
0!
0B
b10100 D
#205
1!
1B
b1010000 I
b10101 @
b10011 >
b10011 =
b10011 7
b101 5
#210
0!
0B
b0 D
b1 E
#215
1!
1B
b1 H
b10110 @
b10100 >
b10100 =
b10100 7
b110 5
#220
0!
0B
b10100 D
b0 E
#225
1!
1B
b10111 @
b1001 ?
b10101 >
b10101 =
b10101 7
#230
0!
0B
b1010 D
#235
1!
1B
b11 H
b11000 @
b1010 ?
b10110 >
b10110 =
b10110 7
#240
0!
0B
#245
1!
1B
b110010 I
b1 G
b101 H
b11001 @
b1011 ?
b10111 >
b10111 =
b10111 7
#250
0!
0B
b0 D
b1 E
#255
1!
1B
b0 G
b0 H
b11010 @
b1100 ?
b11000 >
b11000 7
b10 .
#260
0!
0B
b11 E
#265
1!
1B
b10 H
b11011 @
b11001 >
b11000 =
b111 5
b10 2
#270
0!
0B
b1 E
#275
1!
1B
b11100 @
b1101 ?
b11010 >
b11001 =
b11001 7
#280
0!
0B
b0 E
#285
1!
1B
b100 H
b11101 @
b1110 ?
b11011 >
b11010 =
b11010 7
#290
0!
0B
b110010 D
#295
1!
1B
b0 I
b11 G
b101 H
b11110 @
b1111 ?
b11100 >
b11011 =
b11011 7
#300
0!
0B
b1010 D
#305
1!
1B
b0 G
b0 H
b11111 @
b10000 ?
b11100 =
b11100 7
b10 /
#310
0!
0B
b10100 D
#315
1!
1B
b10100 I
b100000 @
b11101 >
b11101 =
b11101 7
b1000 5
#320
0!
0B
b0 D
b1 E
#325
1!
1B
b100001 @
b11110 >
b11110 =
b11110 7
b1000 0
#330
0!
0B
b0 E
#335
1!
1B
b100010 @
b11111 >
b11111 =
b11111 7
b1001 0
#340
0!
0B
b110010 D
#345
1!
1B
b1000110 I
b100011 @
b100000 >
b100000 =
b100000 7
b1010 0
#350
0!
0B
#355
1!
1B
b1111000 I
b100100 @
b100001 >
b100001 =
b100001 7
b1011 0
#360
0!
0B
b0 D
#365
1!
1B
b100101 @
b100010 >
b100010 =
b100010 7
b1001 5
#370
0!
0B
b1010 D
#375
1!
1B
b10000010 I
b100110 @
b100011 >
b100011 =
b100011 7
b1010 5
#380
0!
0B
b110010 D
#385
1!
1B
b10110100 I
b100111 @
b100100 >
b100100 =
b100100 7
b1011 5
#390
0!
0B
b10100 D
#395
1!
1B
b11001000 I
b101000 @
b100101 >
b100101 =
b100101 7
b1100 5
#400
0!
0B
b1010 D
#405
1!
1B
b11010010 I
b101001 @
b100110 >
b100110 =
b100110 7
b1101 5
#410
0!
0B
b0 D
b1 E
#415
1!
1B
b1 H
b101010 @
b100111 >
b100111 =
b100111 7
b1110 5
#420
0!
0B
b1010 D
b0 E
#425
1!
1B
b101011 @
b10001 ?
b101000 >
b101000 =
b101000 7
#430
0!
0B
b0 D
b11 E
#435
1!
1B
b11 H
b101100 @
b10010 ?
b101001 >
b101001 =
b101001 7
#440
0!
0B
b0 E
#445
1!
1B
b10110100 I
b1 G
b101 H
b101101 @
b10011 ?
b101010 >
b101010 =
b101010 7
#450
0!
0B
b11 E
#455
1!
1B
b0 G
b0 H
b101110 @
b10100 ?
b101011 >
b101011 7
b11 .
#460
0!
0B
b10100 D
b0 E
#465
1!
1B
b11001000 I
b101111 @
b101100 >
b101011 =
b1111 5
b11 2
#470
0!
0B
#475
1!
1B
b11011100 I
b110000 @
b101101 >
b101100 =
b101100 7
b10000 5
#480
0!
0B
#485
1!
1B
b11110000 I
b110001 @
b101110 >
b101101 =
b101101 7
b10001 5
#490
0!
0B
b0 D
b11 E
#495
1!
1B
b10 H
b110010 @
b101111 >
b101110 =
b101110 7
b10010 5
#500
0!
0B
b0 E
#505
1!
1B
b110011 @
b10101 ?
b110000 >
b101111 =
b101111 7
#510
0!
0B
#515
1!
1B
b100 H
b110100 @
b10110 ?
b110001 >
b110000 =
b110000 7
#520
0!
0B
#525
1!
1B
b10111110 I
b11 G
b101 H
b110101 @
b10111 ?
b110010 >
b110001 =
b110001 7
#530
0!
0B
b1 E
#535
1!
1B
b0 G
b0 H
b110110 @
b11000 ?
b110010 =
b110010 7
b11 /
#540
0!
0B
#545
1!
1B
b1 H
b110111 @
b110011 >
b110011 =
b10011 5
b100 2
#550
0!
0B
b10100 D
b0 E
#555
1!
1B
b111000 @
b11001 ?
b110100 >
b110100 =
b110011 7
#560
0!
0B
b110010 D
#565
1!
1B
b11 H
b111001 @
b11010 ?
b110101 >
b110101 =
b110100 7
#570
0!
0B
b0 D
b1 E
#575
1!
1B
b10100000 I
b1 G
b101 H
b111010 @
b11011 ?
b110110 >
b110110 =
b110101 7
#580
0!
0B
b10100 D
b0 E
#585
1!
1B
b0 G
b0 H
b111011 @
b11100 ?
b110111 >
b110110 7
b100 .
#590
0!
0B
b1010 D
#595
1!
1B
b10101010 I
b111100 @
b111000 >
b110111 =
b10100 5
b101 2
#600
0!
0B
b0 D
#605
1!
1B
b111101 @
b111001 >
b111000 =
b110111 7
b10101 5
#610
0!
0B
b11 E
#615
1!
1B
b10 H
b111110 @
b111010 >
b111001 =
b111000 7
b10110 5
#620
0!
0B
#625
1!
1B
b111111 @
b11101 ?
b111011 >
b111010 =
b111001 7
#630
0!
0B
b110010 D
b0 E
#635
1!
1B
b100 H
b1000000 @
b11110 ?
b111100 >
b111011 =
b111010 7
#640
0!
0B
b0 D
b11 E
#645
1!
1B
b1111000 I
b11 G
b101 H
b1000001 @
b11111 ?
b111101 >
b111100 =
b111011 7
#650
0!
0B
b1 E
#655
1!
1B
b0 G
b0 H
b1000010 @
b100000 ?
b111101 =
b111100 7
b100 /
#660
0!
0B
b0 E
#665
1!
1B
b1000011 @
b111110 >
b111110 =
b10111 5
b110 2
#670
0!
0B
b1 E
#675
1!
1B
b1 H
b1000100 @
b111111 >
b111111 =
b111101 7
b11000 5
#680
0!
0B
#685
1!
1B
b1000101 @
b100001 ?
b1000000 >
b1000000 =
b111110 7
#690
0!
0B
b1010 D
b0 E
#695
1!
1B
b11 H
b1000110 @
b100010 ?
b1000001 >
b1000001 =
b111111 7
#700
0!
0B
b0 D
#705
1!
1B
b1011010 I
b1 G
b101 H
b1000111 @
b100011 ?
b1000010 >
b1000010 =
b1000000 7
#710
0!
0B
b11 E
#715
1!
1B
b0 G
b0 H
b1001000 @
b100100 ?
b1000011 >
b1000001 7
b101 .
#720
0!
0B
b0 E
#725
1!
1B
b1001001 @
b1000100 >
b1000011 =
b11001 5
b111 2
#730
0!
0B
b11 E
#735
1!
1B
b10 H
b1001010 @
b1000101 >
b1000100 =
b1000010 7
b11010 5
#740
0!
0B
#745
1!
1B
b1001011 @
b100101 ?
b1000110 >
b1000101 =
b1000011 7
#750
0!
0B
b1 E
#755
1!
1B
b100 H
b1001100 @
b100110 ?
b1000111 >
b1000110 =
b1000100 7
#760
0!
0B
b110010 D
b0 E
#765
1!
1B
b101000 I
b11 G
b101 H
b1001101 @
b100111 ?
b1001000 >
b1000111 =
b1000101 7
#770
0!
0B
b0 D
#775
1!
1B
b0 G
b0 H
b1001110 @
b101000 ?
b1001000 =
b1000110 7
b101 /
#780
0!
0B
b1 E
#785
1!
1B
b1 H
b1001111 @
b1001001 >
b1001001 =
b11011 5
b1000 2
#790
0!
0B
b11 E
#795
1!
1B
b1010000 @
b101001 ?
b1001010 >
b1001010 =
b1000111 7
#800
0!
0B
b0 E
#805
1!
1B
b11 H
b1010001 @
b101010 ?
b1001011 >
b1001011 =
b1001000 7
#810
0!
0B
#815
1!
1B
b1010 I
b1 G
b101 H
b1010010 @
b101011 ?
b1001100 >
b1001100 =
b1001001 7
#820
0!
0B
b10100 D
#825
1!
1B
b0 G
b1010011 @
b101100 ?
b1001101 >
b1001010 7
b110 .
#830
0!
0B
b1010 D
#835
1!
1B
b1010100 @
b101101 ?
b1001110 >
b1001101 =
b1001011 7
#840
0!
0B
b0 D
#845
1!
1B
b1010 F
b110 H
b1010101 @
b101110 ?
b1001111 >
b1001110 =
b1001100 7
#850
0!
0B
#855
1!
1B
b1 A
b101111 ?
b1010000 >
b1001111 =
b1 1
#860
0!
0B
#865
1!
1B
b0 I
b0 H
b0 F
b10 A
b110000 ?
b1010001 >
b1010000 =
b10 1
#870
0!
0B
#875
1!
1B
b1010110 @
b1010010 >
b1010001 =
b1001101 7
b11100 5
#880
0!
0B
b1010 D
#885
1!
1B
b1010 I
b1010111 @
b1010011 >
b1010010 =
b1001110 7
b1100 0
#890
0!
0B
b0 D
b1 E
#895
1!
1B
b1011000 @
b1010100 >
b1010011 =
b1001111 7
b1101 0
#900
0!
0B
#905
1!
1B
b1011001 @
b1010101 >
b1010100 =
b1010000 7
b1110 0
#910
0!
0B
b110010 D
b0 E
#915
1!
1B
b111100 I
b1011010 @
b1010110 >
b1010101 =
b1010001 7
b1111 0
#920
0!
0B
#925
1!
1B
b1101110 I
b1011011 @
b1010111 >
b1010110 =
b1010010 7
b10000 0
#930
0!
0B
b10100 D
#935
1!
1B
b10000010 I
b1011100 @
b1011000 >
b1010111 =
b1010011 7
b11101 5
#940
0!
0B
b1010 D
#945
1!
1B
b10001100 I
b1011101 @
b1011001 >
b1011000 =
b1010100 7
b11110 5
#950
0!
0B
b0 D
#955
1!
1B
b1011110 @
b1011010 >
b1011001 =
b1010101 7
b11111 5
#960
0!
0B
b1 E
#965
1!
1B
b1 H
b1011111 @
b1011011 >
b1011010 =
b1010110 7
b100000 5
#970
0!
0B
b110010 D
b0 E
#975
1!
1B
b1100000 @
b110001 ?
b1011100 >
b1011011 =
b1010111 7
#980
0!
0B
b0 D
b1 E
#985
1!
1B
b11 H
b1100001 @
b110010 ?
b1011101 >
b1011100 =
b1011000 7
#990
0!
0B
b11 E
#995
1!
1B
b1101110 I
b1 G
b101 H
b1100010 @
b110011 ?
b1011110 >
b1011101 =
b1011001 7
#1000
0!
0B
b10100 D
b0 E
#1005
1!
1B
b0 G
b0 H
b1100011 @
b110100 ?
b1011111 >
b1011010 7
b111 .
#1010
0!
0B
b1010 D
#1015
1!
1B
b1111000 I
b1100100 @
b1100000 >
b1011110 =
b100001 5
b1001 2
#1020
0!
0B
b0 D
#1025
1!
1B
b1100101 @
b1100001 >
b1011111 =
b1011011 7
b100010 5
#1030
0!
0B
b10100 D
#1035
1!
1B
b10001100 I
b1100110 @
b1100010 >
b1100000 =
b1011100 7
b100011 5
#1040
0!
0B
b110010 D
#1045
1!
1B
b10111110 I
b1100111 @
b1100011 >
b1100001 =
b1011101 7
b100100 5
#1050
0!
0B
#1055
1!
1B
b11110000 I
b1101000 @
b1100100 >
b1100010 =
b1011110 7
b100101 5
#1060
0!
0B
b0 D
b11 E
#1065
1!
1B
b10 H
b1101001 @
b1100101 >
b1100011 =
b1011111 7
b100110 5
#1070
0!
0B
b1 E
#1075
1!
1B
b1101010 @
b110101 ?
b1100110 >
b1100100 =
b1100000 7
#1080
0!
0B
b0 E
#1085
1!
1B
b100 H
b1101011 @
b110110 ?
b1100111 >
b1100101 =
b1100001 7
#1090
0!
0B
b1010 D
#1095
1!
1B
b10111110 I
b11 G
b101 H
b1101100 @
b110111 ?
b1101000 >
b1100110 =
b1100010 7
#1100
0!
0B
#1105
1!
1B
b0 G
b0 H
b1101101 @
b111000 ?
b1100111 =
b1100011 7
b110 /
#1110
0!
0B
#1115
1!
1B
b11001000 I
b1101110 @
b1101001 >
b1101000 =
b100111 5
b1010 2
#1120
0!
0B
b0 D
b1 E
#1125
1!
1B
b1 H
b1101111 @
b1101010 >
b1101001 =
b1100100 7
b101000 5
#1130
0!
0B
b1010 D
b0 E
#1135
1!
1B
b1110000 @
b111001 ?
b1101011 >
b1101010 =
b1100101 7
#1140
0!
0B
b110010 D
#1145
1!
1B
b11 H
b1110001 @
b111010 ?
b1101100 >
b1101011 =
b1100110 7
#1150
0!
0B
b10100 D
#1155
1!
1B
b10101010 I
b1 G
b101 H
b1110010 @
b111011 ?
b1101101 >
b1101100 =
b1100111 7
#1160
0!
0B
b0 D
b11 E
#1165
1!
1B
b0 G
b0 H
b1110011 @
b111100 ?
b1101110 >
b1101000 7
b1000 .
#1170
0!
0B
b1010 D
b0 E
#1175
1!
1B
b10110100 I
b1110100 @
b1101111 >
b1101101 =
b101001 5
b1011 2
#1180
0!
0B
b10100 D
#1185
1!
1B
b11001000 I
b1110101 @
b1110000 >
b1101110 =
b1101001 7
b101010 5
#1190
0!
0B
#1195
1!
1B
b11011100 I
b1110110 @
b1110001 >
b1101111 =
b1101010 7
b101011 5
#1200
0!
0B
b0 D
b11 E
#1205
1!
1B
b10 H
b1110111 @
b1110010 >
b1110000 =
b1101011 7
b101100 5
#1210
0!
0B
b10100 D
b0 E
#1215
1!
1B
b1111000 @
b111101 ?
b1110011 >
b1110001 =
b1101100 7
#1220
0!
0B
#1225
1!
1B
b100 H
b1111001 @
b111110 ?
b1110100 >
b1110010 =
b1101101 7
#1230
0!
0B
b0 D
#1235
1!
1B
b10101010 I
b11 G
b101 H
b1111010 @
b111111 ?
b1110101 >
b1110011 =
b1101110 7
#1240
0!
0B
b1010 D
#1245
1!
1B
b0 G
b0 H
b1111011 @
b1000000 ?
b1110100 =
b1101111 7
b111 /
#1250
0!
0B
b10100 D
#1255
1!
1B
b10111110 I
b1111100 @
b1110110 >
b1110101 =
b101101 5
b1100 2
#1260
0!
0B
b0 D
#1265
1!
1B
b1111101 @
b1110111 >
b1110110 =
b1110000 7
b101110 5
#1270
0!
0B
b1010 D
#1275
1!
1B
b11001000 I
b1111110 @
b1111000 >
b1110111 =
b1110001 7
b101111 5
#1280
0!
0B
#1285
1!
1B
b11010010 I
b1111111 @
b1111001 >
b1111000 =
b1110010 7
b110000 5
#1290
0!
0B
b0 D
#1295
1!
1B
b10000000 @
b1111010 >
b1111001 =
b1110011 7
b110001 5
#1300
0!
0B
b11 E
#1305
1!
1B
b10 H
b10000001 @
b1111011 >
b1111010 =
b1110100 7
b110010 5
#1310
0!
0B
b110010 D
b0 E
#1315
1!
1B
b10000010 @
b1000001 ?
b1111100 >
b1111011 =
b1110101 7
#1320
0!
0B
b10100 D
#1325
1!
1B
b100 H
b10000011 @
b1000010 ?
b1111101 >
b1111100 =
b1110110 7
#1330
0!
0B
b1010 D
#1335
1!
1B
b10100000 I
b11 G
b101 H
b10000100 @
b1000011 ?
b1111110 >
b1111101 =
b1110111 7
#1340
0!
0B
b0 D
b1 E
#1345
1!
1B
b0 G
b0 H
b10000101 @
b1000100 ?
b1111110 =
b1111000 7
b1000 /
#1350
0!
0B
b1010 D
b0 E
#1355
1!
1B
b10101010 I
b10000110 @
b1111111 >
b1111111 =
b110011 5
b1101 2
#1360
0!
0B
b0 D
#1365
1!
1B
b10000111 @
b10000000 >
b10000000 =
b1111001 7
b110100 5
#1370
0!
0B
b11 E
#1375
1!
1B
b10 H
b10001000 @
b10000001 >
b10000001 =
b1111010 7
b110101 5
#1380
0!
0B
b10100 D
b0 E
#1385
1!
1B
b10001001 @
b1000101 ?
b10000010 >
b10000010 =
b1111011 7
#1390
0!
0B
b0 D
#1395
1!
1B
b100 H
b10001010 @
b1000110 ?
b10000011 >
b10000011 =
b1111100 7
#1400
0!
0B
b10100 D
#1405
1!
1B
b1111000 I
b11 G
b101 H
b10001011 @
b1000111 ?
b10000100 >
b10000100 =
b1111101 7
#1410
0!
0B
#1415
1!
1B
b0 G
b0 H
b10001100 @
b1001000 ?
b10000101 =
b1111110 7
b1001 /
#1420
0!
0B
b0 D
b1 E
#1425
1!
1B
b1 H
b10001101 @
b10000101 >
b10000110 =
b110110 5
b1110 2
#1430
0!
0B
b1010 D
b0 E
#1435
1!
1B
b10001110 @
b1001001 ?
b10000110 >
b10000111 =
b1111111 7
#1440
0!
0B
b0 D
b1 E
#1445
1!
1B
b11 H
b10001111 @
b1001010 ?
b10000111 >
b10001000 =
b10000000 7
#1450
0!
0B
b0 E
#1455
1!
1B
b1011010 I
b1 G
b101 H
b10010000 @
b1001011 ?
b10001000 >
b10001001 =
b10000001 7
#1460
0!
0B
b110010 D
#1465
1!
1B
b0 G
b0 H
b10010001 @
b1001100 ?
b10001001 >
b10000010 7
b1001 .
#1470
0!
0B
b0 D
b11 E
#1475
1!
1B
b10 H
b10010010 @
b10001010 >
b10001010 =
b110111 5
b1111 2
#1480
0!
0B
b110010 D
b0 E
#1485
1!
1B
b10010011 @
b1001101 ?
b10001011 >
b10001011 =
b10000011 7
#1490
0!
0B
b0 D
b11 E
#1495
1!
1B
b100 H
b10010100 @
b1001110 ?
b10001100 >
b10001100 =
b10000100 7
#1500
0!
0B
b1 E
#1505
1!
1B
b101000 I
b11 G
b101 H
b10010101 @
b1001111 ?
b10001101 >
b10001101 =
b10000101 7
#1510
0!
0B
#1515
1!
1B
b0 G
b0 H
b10010110 @
b1010000 ?
b10001110 =
b10000110 7
b1010 /
#1520
0!
0B
b10100 D
b0 E
#1525
1!
1B
b111100 I
b10010111 @
b10001110 >
b10001111 =
b111000 5
b10000 2
#1530
0!
0B
b0 D
#1535
1!
1B
b10011000 @
b10001111 >
b10010000 =
b10000111 7
b111001 5
#1540
0!
0B
b10100 D
#1545
1!
1B
b1010000 I
b10011001 @
b10010000 >
b10010001 =
b10001000 7
b111010 5
#1550
0!
0B
b110010 D
#1555
1!
1B
b10000010 I
b10011010 @
b10010001 >
b10010010 =
b10001001 7
b111011 5
#1560
0!
0B
b1010 D
#1565
1!
1B
b10001100 I
b10011011 @
b10010010 >
b10010011 =
b10001010 7
b111100 5
#1570
0!
0B
b10100 D
#1575
1!
1B
b10100000 I
b10011100 @
b10010011 >
b10010100 =
b10001011 7
b111101 5
#1580
0!
0B
b0 D
b1 E
#1585
1!
1B
b1 H
b10011101 @
b10010100 >
b10010101 =
b10001100 7
b111110 5
#1590
0!
0B
b11 E
#1595
1!
1B
b10011110 @
b1010001 ?
b10010101 >
b10010110 =
b10001101 7
#1600
0!
0B
b10100 D
b0 E
#1605
1!
1B
b11 H
b10011111 @
b1010010 ?
b10010110 >
b10010111 =
b10001110 7
#1610
0!
0B
b1010 D
#1615
1!
1B
b10000010 I
b1 G
b101 H
b10100000 @
b1010011 ?
b10010111 >
b10011000 =
b10001111 7
#1620
0!
0B
b0 D
b1 E
#1625
1!
1B
b0 G
b0 H
b10100001 @
b1010100 ?
b10011000 >
b10010000 7
b1010 .
#1630
0!
0B
#1635
1!
1B
b1 H
b10100010 @
b10011001 >
b10011001 =
b111111 5
b10001 2
#1640
0!
0B
b0 E
#1645
1!
1B
b10100011 @
b1010101 ?
b10011010 >
b10011010 =
b10010001 7
#1650
0!
0B
b11 E
#1655
1!
1B
b11 H
b10100100 @
b1010110 ?
b10011011 >
b10011011 =
b10010010 7
#1660
0!
0B
b1010 D
b0 E
#1665
1!
1B
b1100100 I
b1 G
b101 H
b10100101 @
b1010111 ?
b10011100 >
b10011100 =
b10010011 7
#1670
0!
0B
b10100 D
#1675
1!
1B
b0 G
b0 H
b10100110 @
b1011000 ?
b10011101 >
b10010100 7
b1011 .
#1680
0!
0B
b0 D
b1 E
#1685
1!
1B
b1 H
b10100111 @
b10011110 >
b10011101 =
b1000000 5
b10010 2
#1690
0!
0B
b110010 D
b0 E
#1695
1!
1B
b10101000 @
b1011001 ?
b10011111 >
b10011110 =
b10010101 7
#1700
0!
0B
b1010 D
#1705
1!
1B
b11 H
b10101001 @
b1011010 ?
b10100000 >
b10011111 =
b10010110 7
#1710
0!
0B
b10100 D
#1715
1!
1B
b1000110 I
b1 G
b101 H
b10101010 @
b1011011 ?
b10100001 >
b10100000 =
b10010111 7
#1720
0!
0B
b0 D
b11 E
#1725
1!
1B
b0 G
b0 H
b10101011 @
b1011100 ?
b10100010 >
b10011000 7
b1100 .
#1730
0!
0B
b10100 D
b0 E
#1735
1!
1B
b1011010 I
b10101100 @
b10100011 >
b10100001 =
b1000001 5
b10011 2
#1740
0!
0B
b110010 D
#1745
1!
1B
b10001100 I
b10101101 @
b10100100 >
b10100010 =
b10011001 7
b1000010 5
#1750
0!
0B
b0 D
b1 E
#1755
1!
1B
b1 H
b10101110 @
b10100101 >
b10100011 =
b10011010 7
b1000011 5
#1760
0!
0B
b110010 D
b0 E
#1765
1!
1B
b10101111 @
b1011101 ?
b10100110 >
b10100100 =
b10011011 7
#1770
0!
0B
b1010 D
#1775
1!
1B
b11 H
b10110000 @
b1011110 ?
b10100111 >
b10100101 =
b10011100 7
#1780
0!
0B
b0 D
b1 E
#1785
1!
1B
b1101110 I
b1 G
b101 H
b10110001 @
b1011111 ?
b10101000 >
b10100110 =
b10011101 7
#1790
0!
0B
b0 E
#1795
1!
1B
b0 G
b0 H
b10110010 @
b1100000 ?
b10101001 >
b10011110 7
b1101 .
#1800
0!
0B
b11 E
#1805
1!
1B
b10 H
b10110011 @
b10101010 >
b10100111 =
b1000100 5
b10100 2
#1810
0!
0B
#1815
1!
1B
b10110100 @
b1100001 ?
b10101011 >
b10101000 =
b10011111 7
#1820
0!
0B
#1825
1!
1B
b100 H
b10110101 @
b1100010 ?
b10101100 >
b10101001 =
b10100000 7
#1830
0!
0B
#1835
1!
1B
b111100 I
b11 G
b101 H
b10110110 @
b1100011 ?
b10101101 >
b10101010 =
b10100001 7
#1840
0!
0B
b1 E
#1845
1!
1B
b0 G
b0 H
b10110111 @
b1100100 ?
b10101011 =
b10100010 7
b1011 /
#1850
0!
0B
b11 E
#1855
1!
1B
b10 H
b10111000 @
b10101110 >
b10101100 =
b1000101 5
b10101 2
#1860
0!
0B
b110010 D
b0 E
#1865
1!
1B
b10111001 @
b1100101 ?
b10101111 >
b10101101 =
b10100011 7
#1870
0!
0B
b10100 D
#1875
1!
1B
b100 H
b10111010 @
b1100110 ?
b10110000 >
b10101110 =
b10100100 7
#1880
0!
0B
#1885
1!
1B
b1010 I
b11 G
b101 H
b10111011 @
b1100111 ?
b10110001 >
b10101111 =
b10100101 7
#1890
0!
0B
b0 D
#1895
1!
1B
b0 G
b10111100 @
b1101000 ?
b10110000 =
b10100110 7
b1100 /
#1900
0!
0B
b11 E
#1905
1!
1B
b10111101 @
b1101001 ?
b10110010 >
b10110001 =
b10100111 7
#1910
0!
0B
#1915
1!
1B
b1010 F
b110 H
b10111110 @
b1101010 ?
b10110011 >
b10110010 =
b10101000 7
#1920
0!
0B
b110010 D
b0 E
#1925
1!
1B
b11 A
b1101011 ?
b10110100 >
b10110011 =
b11 1
#1930
0!
0B
#1935
1!
1B
b0 I
b0 H
b0 F
b100 A
b1101100 ?
b10110101 >
b10110100 =
b100 1
#1940
0!
0B
b10100 D
#1945
1!
1B
b10100 I
b10111111 @
b10110110 >
b10110101 =
b10101001 7
b1000110 5
#1950
0!
0B
b110010 D
#1955
1!
1B
b1000110 I
b11000000 @
b10110111 >
b10110110 =
b10101010 7
b10001 0
#1960
0!
0B
b10100 D
#1965
1!
1B
b1011010 I
b11000001 @
b10111000 >
b10110111 =
b10101011 7
b10010 0
#1970
0!
0B
b1010 D
#1975
1!
1B
b1100100 I
b11000010 @
b10111001 >
b10111000 =
b10101100 7
b1000111 5
#1980
0!
0B
b0 D
b11 E
#1985
1!
1B
b10 H
b11000011 @
b10111010 >
b10111001 =
b10101101 7
b1001000 5
#1990
0!
0B
b1010 D
b0 E
#1995
1!
1B
b11000100 @
b1101101 ?
b10111011 >
b10111010 =
b10101110 7
#2000
0!
0B
b10100 D
#2005
1!
1B
b100 H
b11000101 @
b1101110 ?
b10111100 >
b10111011 =
b10101111 7
#2010
0!
0B
b110010 D
#2015
1!
1B
b110010 I
b11 G
b101 H
b11000110 @
b1101111 ?
b10111101 >
b10111100 =
b10110000 7
#2020
0!
0B
b0 D
b11 E
#2025
1!
1B
b0 G
b0 H
b11000111 @
b1110000 ?
b10111101 =
b10110001 7
b1101 /
#2030
0!
0B
b110010 D
b0 E
#2035
1!
1B
b1100100 I
b11001000 @
b10111110 >
b10111110 =
b1001001 5
b10110 2
#2040
0!
0B
b10100 D
#2045
1!
1B
b1111000 I
b11001001 @
b10111111 >
b10111111 =
b10110010 7
b1001010 5
#2050
0!
0B
b110010 D
#2055
1!
1B
b10101010 I
b11001010 @
b11000000 >
b11000000 =
b10110011 7
b1001011 5
#2060
0!
0B
b0 D
b11 E
#2065
1!
1B
b10 H
b11001011 @
b11000001 >
b11000001 =
b10110100 7
b1001100 5
#2070
0!
0B
b10100 D
b0 E
#2075
1!
1B
b11001100 @
b1110001 ?
b11000010 >
b11000010 =
b10110101 7
#2080
0!
0B
b1010 D
#2085
1!
1B
b100 H
b11001101 @
b1110010 ?
b11000011 >
b11000011 =
b10110110 7
#2090
0!
0B
#2095
1!
1B
b1111000 I
b11 G
b101 H
b11001110 @
b1110011 ?
b11000100 >
b11000100 =
b10110111 7
#2100
0!
0B
b0 D
b1 E
#2105
1!
1B
b0 G
b0 H
b11001111 @
b1110100 ?
b11000101 =
b10111000 7
b1110 /
#2110
0!
0B
b11 E
#2115
1!
1B
b10 H
b11010000 @
b11000101 >
b11000110 =
b1001101 5
b10111 2
#2120
0!
0B
b110010 D
b0 E
#2125
1!
1B
b11010001 @
b1110101 ?
b11000110 >
b11000111 =
b10111001 7
#2130
0!
0B
b0 D
b11 E
#2135
1!
1B
b100 H
b11010010 @
b1110110 ?
b11000111 >
b11001000 =
b10111010 7
#2140
0!
0B
b1010 D
b0 E
