RandomTB/fsm.vcd
$date
	Fri Dec 30 17:59:38 2022
$end
$version
	ModelSim Version 2019.4
$end
$timescale
	1ns
$end

$scope module tbench_top $end
$var reg 1 ! clk $end
$var reg 1 " rst $end
$var reg 16 # coin_in [15:0] $end
$var reg 2 $ button_in [1:0] $end
$var reg 2 % beverage_out [1:0] $end
$var reg 16 & change_out [15:0] $end

$scope module t1 $end
$upscope $end

$scope module DUT $end
$var parameter 3 ' add_coin $end
$var parameter 3 ( water $end
$var parameter 3 ) soda $end
$var parameter 3 * change $end
$var parameter 3 + credit0 $end
$var parameter 3 , wait_water $end
$var parameter 3 - wait_soda $end
$var reg 16 . count_water [15:0] $end
$var reg 16 / count_soda [15:0] $end
$var reg 16 0 count_no_money [15:0] $end
$var reg 16 1 count_change [15:0] $end

$scope unknown ch1_instance $end
$var integer 32 2 p0ATCT $end
$var integer 32 3 p1ATCT $end
$var integer 32 4 p2ATCT $end
$var integer 32 5 p3ATCT $end
$var integer 32 6 p4ATCT $end
$upscope $end
$upscope $end

$scope module intf $end
$var wire 1 7 clk $end
$var wire 1 8 rst $end
$var reg 16 9 coin_in [15:0] $end
$var reg 2 : button_in [1:0] $end
$var reg 16 ; change_out [15:0] $end
$var reg 2 < beverage_out [1:0] $end
$var reg 3 = state [2:0] $end
$var reg 16 > c [15:0] $end

$scope unknown dut $end
$upscope $end
$upscope $end
$upscope $end
$enddefinitions $end
#0
$dumpvars
0!
1"
bx #
bx $
bx %
bx &
bx 9
bx :
bx ;
b0 <
b0 =
b0 >
b0 .
b0 /
b0 0
b0 1
b0 '
b1 (
b10 )
b11 *
b100 +
b101 ,
b110 -
b0 2
b0 3
b0 4
b0 5
b0 6
18
07
$end
#5
1!
0"
17
08
b1 0
b1 6
#10
0!
07
b0 9
b11 :
#15
1!
17
b10 0
b10 6
b1 4
#20
0!
07
#25
1!
17
b11 0
b11 6
b10 4
#30
0!
07
b1010 9
b0 :
#35
1!
17
b1010 >
b100 0
b100 6
b11 4
#40
0!
07
b10100 9
#45
1!
17
b11110 >
b101 0
b101 6
b100 4
#50
0!
07
b0 9
b11 :
#55
1!
17
b110 6
b101 4
#60
0!
07
b1 :
#65
1!
17
b101 =
b111 6
#70
0!
07
b11 :
#75
1!
17
b1000 6
#80
0!
07
b1 :
#85
1!
17
b1 =
b1001 6
#90
0!
07
#95
1!
17
b1 .
b0 >
b1 <
b11 =
b1010 6
#100
0!
07
#105
1!
17
b0 <
b0 =
b1011 6
b1 2
#110
0!
07
b1010 9
b0 :
#115
1!
17
b1010 >
b110 0
b1100 6
#120
0!
07
#125
1!
17
b10100 >
b111 0
b1101 6
b110 4
#130
0!
07
b0 9
b11 :
#135
1!
17
b1000 0
b1110 6
b111 4
#140
0!
07
b0 :
#145
1!
17
b1001 0
b1111 6
b1000 4
#150
0!
07
b10100 9
#155
1!
17
b101000 >
b1010 0
b10000 6
b1001 4
#160
0!
07
b0 9
#165
1!
17
b10001 6
b1010 4
#170
0!
07
b1010 9
#175
1!
17
b110010 >
b10010 6
#180
0!
07
b0 9
b1 :
#185
1!
17
b101 =
b10011 6
#190
0!
07
b0 :
#195
1!
17
b10100 6
#200
0!
07
b10100 9
#205
1!
17
b1 =
b10101 6
#210
0!
07
b0 9
b11 :
#215
1!
17
b10 .
b10100 >
b1 <
b11 =
b10110 6
#220
0!
07
b10100 9
b0 :
#225
1!
17
b0 <
b10111 6
b10 2
#230
0!
07
b1010 9
#235
1!
17
b11000 6
#240
0!
07
#245
1!
17
b10100 ;
b100 =
b11001 6
#250
0!
07
b0 9
b11 :
#255
1!
17
b11010 6
b1 5
#260
0!
07
b1 :
#265
1!
17
b1 1
b0 >
b0 =
b0 ;
b11011 6
#270
0!
07
b11 :
#275
1!
17
b1011 0
b11100 6
#280
0!
07
b0 :
#285
1!
17
b1100 0
b11101 6
b1011 4
#290
0!
07
b1 :
#295
1!
17
b1101 0
b11110 6
b1100 4
#300
0!
07
b1010 9
b0 :
#305
1!
17
b1010 >
b1110 0
b11111 6
b1101 4
#310
0!
07
b10100 9
#315
1!
17
b11110 >
b1111 0
b100000 6
b1110 4
#320
0!
07
b0 9
b11 :
#325
1!
17
b100001 6
b1111 4
#330
0!
07
b0 :
#335
1!
17
b100010 6
#340
0!
07
b1 :
#345
1!
17
b101 =
b100011 6
#350
0!
07
#355
1!
17
b100100 6
#360
0!
07
b0 :
#365
1!
17
b1 =
b100101 6
#370
0!
07
b1010 9
#375
1!
17
b11 .
b0 >
b1 <
b11 =
b100110 6
#380
0!
07
b0 9
b1 :
#385
1!
17
b0 <
b0 =
b100111 6
b11 2
#390
0!
07
b10100 9
b0 :
#395
1!
17
b10100 >
b10000 0
b101000 6
#400
0!
07
b1010 9
#405
1!
17
b11110 >
b10001 0
b101001 6
b10000 4
#410
0!
07
b0 9
b11 :
#415
1!
17
b101010 6
b10001 4
#420
0!
07
b1010 9
b0 :
#425
1!
17
b101000 >
b101011 6
#430
0!
07
b0 9
#435
1!
17
b101100 6
#440
0!
07
#445
1!
17
b101101 6
#450
0!
07
b1010 9
#455
1!
17
b110010 >
b101110 6
#460
0!
07
b10100 9
#465
1!
17
b1000110 >
b101111 6
#470
0!
07
#475
1!
17
b1011010 >
b110000 6
#480
0!
07
#485
1!
17
b1101110 >
b110001 6
#490
0!
07
b1010 9
#495
1!
17
b1111000 >
b110010 6
#500
0!
07
b0 9
#505
1!
17
b110011 6
#510
0!
07
#515
1!
17
b110100 6
#520
0!
07
#525
1!
17
b110101 6
#530
0!
07
b11 :
#535
1!
17
b110 =
b110110 6
#540
0!
07
#545
1!
17
b110111 6
#550
0!
07
b10100 9
b0 :
#555
1!
17
b10 =
b111000 6
#560
0!
07
b0 9
b1 :
#565
1!
17
b1 /
b1000110 >
b11 <
b11 =
b111001 6
#570
0!
07
b11 :
#575
1!
17
b0 <
b0 =
b111010 6
b1 3
#580
0!
07
b10100 9
b0 :
#585
1!
17
b1011010 >
b111011 6
#590
0!
07
b1010 9
#595
1!
17
b1100100 >
b111100 6
#600
0!
07
b0 9
#605
1!
17
b111101 6
#610
0!
07
b1010 9
#615
1!
17
b1101110 >
b111110 6
#620
0!
07
b10100 9
#625
1!
17
b10000010 >
b111111 6
#630
0!
07
b0 9
b1 :
#635
1!
17
b101 =
b1000000 6
#640
0!
07
b0 :
#645
1!
17
b1000001 6
#650
0!
07
b11 :
#655
1!
17
b1 =
b1000010 6
#660
0!
07
b0 :
#665
1!
17
b100 .
b1100100 >
b1 <
b11 =
b1000011 6
#670
0!
07
b11 :
#675
1!
17
b0 <
b0 =
b1000100 6
b100 2
#680
0!
07
#685
1!
17
b110 =
b1000101 6
#690
0!
07
b1010 9
b0 :
#695
1!
17
b1000110 6
#700
0!
07
b0 9
#705
1!
17
b10 =
b1000111 6
#710
0!
07
b11 :
#715
1!
17
b10 /
b110010 >
b11 <
b11 =
b1001000 6
#720
0!
07
b0 :
#725
1!
17
b0 <
b0 =
b1001001 6
b10 3
#730
0!
07
b10100 9
#735
1!
17
b1000110 >
b1001010 6
#740
0!
07
b0 9
b11 :
#745
1!
17
b110 =
b1001011 6
#750
0!
07
#755
1!
17
b1001100 6
#760
0!
07
b1 :
#765
1!
17
b10 =
b1001101 6
#770
0!
07
b0 :
#775
1!
17
b11 /
b10100 >
b11 <
b11 =
b1001110 6
#780
0!
07
b11 :
#785
1!
17
b0 <
b1001111 6
b11 3
#790
0!
07
b0 :
#795
1!
17
b1010000 6
#800
0!
07
#805
1!
17
b10100 ;
b100 =
b1010001 6
#810
0!
07
#815
1!
17
b1010010 6
b10 5
#820
0!
07
b10100 9
#825
1!
17
b10 1
b0 >
b0 =
b0 ;
b1010011 6
#830
0!
07
b1010 9
#835
1!
17
b1010 >
b10010 0
b1010100 6
#840
0!
07
b0 9
#845
1!
17
b10011 0
b1010101 6
b10010 4
#850
0!
07
#855
1!
17
b10100 0
b1010110 6
b10011 4
#860
0!
07
#865
1!
17
b10101 0
b1010111 6
b10100 4
#870
0!
07
#875
1!
17
b10110 0
b1011000 6
b10101 4
#880
0!
07
b1010 9
#885
1!
17
b10100 >
b10111 0
b1011001 6
b10110 4
#890
0!
07
b0 9
b11 :
#895
1!
17
b11000 0
b1011010 6
b10111 4
#900
0!
07
#905
1!
17
b11001 0
b1011011 6
b11000 4
#910
0!
07
b1 :
#915
1!
17
b11010 0
b1011100 6
b11001 4
#920
0!
07
#925
1!
17
b11011 0
b1011101 6
b11010 4
#930
0!
07
b10100 9
b0 :
#935
1!
17
b101000 >
b11100 0
b1011110 6
b11011 4
#940
0!
07
b1010 9
#945
1!
17
b110010 >
b1011111 6
b11100 4
#950
0!
07
b0 9
#955
1!
17
b1100000 6
#960
0!
07
b11 :
#965
1!
17
b110 =
b1100001 6
#970
0!
07
b1 :
#975
1!
17
b1100010 6
#980
0!
07
b11 :
#985
1!
17
b10 =
b1100011 6
#990
0!
07
#995
1!
17
b100 /
b0 >
b11 <
b11 =
b1100100 6
#1000
0!
07
b10100 9
b0 :
#1005
1!
17
b0 <
b0 =
b1100101 6
b100 3
#1010
0!
07
b1010 9
#1015
1!
17
b1010 >
b11101 0
b1100110 6
#1020
0!
07
b0 9
#1025
1!
17
b11110 0
b1100111 6
b11101 4
#1030
0!
07
b10100 9
#1035
1!
17
b11110 >
b11111 0
b1101000 6
b11110 4
#1040
0!
07
b0 9
b1 :
#1045
1!
17
b101 =
b1101001 6
b11111 4
#1050
0!
07
#1055
1!
17
b1101010 6
#1060
0!
07
b11 :
#1065
1!
17
b1 =
b1101011 6
#1070
0!
07
#1075
1!
17
b101 .
b0 >
b1 <
b11 =
b1101100 6
#1080
0!
07
b0 :
#1085
1!
17
b0 <
b0 =
b1101101 6
b101 2
#1090
0!
07
b1010 9
#1095
1!
17
b1010 >
b100000 0
b1101110 6
#1100
0!
07
#1105
1!
17
b10100 >
b100001 0
b1101111 6
b100000 4
#1110
0!
07
#1115
1!
17
b11110 >
b100010 0
b1110000 6
b100001 4
#1120
0!
07
b0 9
b11 :
#1125
1!
17
b1110001 6
b100010 4
#1130
0!
07
b1010 9
b0 :
#1135
1!
17
b101000 >
b1110010 6
#1140
0!
07
b0 9
b1 :
#1145
1!
17
b101 =
b1110011 6
#1150
0!
07
b10100 9
b0 :
#1155
1!
17
b1110100 6
#1160
0!
07
b0 9
b11 :
#1165
1!
17
b1 =
b1110101 6
#1170
0!
07
b1010 9
b0 :
#1175
1!
17
b110 .
b1010 >
b1 <
b11 =
b1110110 6
#1180
0!
07
b10100 9
#1185
1!
17
b0 <
b1110111 6
b110 2
#1190
0!
07
#1195
1!
17
b1111000 6
#1200
0!
07
#1205
1!
17
b1010 ;
b100 =
b1111001 6
#1210
0!
07
#1215
1!
17
b1111010 6
b11 5
#1220
0!
07
#1225
1!
17
b11 1
b0 >
b0 =
b0 ;
b1111011 6
#1230
0!
07
b0 9
#1235
1!
17
b100011 0
b1111100 6
#1240
0!
07
b1010 9
#1245
1!
17
b1010 >
b100100 0
b1111101 6
b100011 4
#1250
0!
07
b10100 9
#1255
1!
17
b11110 >
b100101 0
b1111110 6
b100100 4
#1260
0!
07
b0 9
#1265
1!
17
b1111111 6
b100101 4
#1270
0!
07
b1010 9
#1275
1!
17
b101000 >
b10000000 6
#1280
0!
07
#1285
1!
17
b110010 >
b10000001 6
#1290
0!
07
b0 9
#1295
1!
17
b10000010 6
#1300
0!
07
b1010 9
#1305
1!
17
b111100 >
b10000011 6
#1310
0!
07
b0 9
b1 :
#1315
1!
17
b101 =
b10000100 6
#1320
0!
07
b10100 9
b0 :
#1325
1!
17
b10000101 6
#1330
0!
07
b1010 9
#1335
1!
17
b1 =
b10000110 6
#1340
0!
07
b0 9
b11 :
#1345
1!
17
b111 .
b11110 >
b1 <
b11 =
b10000111 6
#1350
0!
07
b1010 9
b0 :
#1355
1!
17
b0 <
b0 =
b10001000 6
b111 2
#1360
0!
07
b0 9
#1365
1!
17
b10001001 6
#1370
0!
07
b11 :
#1375
1!
17
b10001010 6
#1380
0!
07
b10100 9
b0 :
#1385
1!
17
b110010 >
b10001011 6
#1390
0!
07
b0 9
#1395
1!
17
b10001100 6
#1400
0!
07
b10100 9
#1405
1!
17
b1000110 >
b10001101 6
#1410
0!
07
#1415
1!
17
b1011010 >
b10001110 6
#1420
0!
07
b0 9
b11 :
#1425
1!
17
b110 =
b10001111 6
#1430
0!
07
b1010 9
b0 :
#1435
1!
17
b10010000 6
#1440
0!
07
b0 9
b11 :
#1445
1!
17
b10 =
b10010001 6
#1450
0!
07
b0 :
#1455
1!
17
b101 /
b101000 >
b11 <
b11 =
b10010010 6
#1460
0!
07
b1 :
#1465
1!
17
b0 <
b0 =
b10010011 6
b101 3
#1470
0!
07
b0 :
#1475
1!
17
b10010100 6
#1480
0!
07
b1 :
#1485
1!
17
b101 =
b10010101 6
#1490
0!
07
#1495
1!
17
b10010110 6
#1500
0!
07
b11 :
#1505
1!
17
b1 =
b10010111 6
#1510
0!
07
#1515
1!
17
b1000 .
b1010 >
b1 <
b11 =
b10011000 6
#1520
0!
07
b10100 9
b0 :
#1525
1!
17
b0 <
b10011001 6
b1000 2
#1530
0!
07
b0 9
#1535
1!
17
b10011010 6
#1540
0!
07
b10100 9
#1545
1!
17
b1010 ;
b100 =
b10011011 6
#1550
0!
07
b0 9
b1 :
#1555
1!
17
b10011100 6
b100 5
#1560
0!
07
b1010 9
b0 :
#1565
1!
17
b100 1
b0 >
b0 =
b0 ;
b10011101 6
#1570
0!
07
b10100 9
#1575
1!
17
b10100 >
b100110 0
b10011110 6
#1580
0!
07
b0 9
b11 :
#1585
1!
17
b100111 0
b10011111 6
b100110 4
#1590
0!
07
b1 :
#1595
1!
17
b101000 0
b10100000 6
b100111 4
#1600
0!
07
b10100 9
b0 :
#1605
1!
17
b101000 >
b101001 0
b10100001 6
b101000 4
#1610
0!
07
b1010 9
#1615
1!
17
b110010 >
b10100010 6
b101001 4
#1620
0!
07
b0 9
b11 :
#1625
1!
17
b110 =
b10100011 6
#1630
0!
07
#1635
1!
17
b10100100 6
#1640
0!
07
b0 :
#1645
1!
17
b10 =
b10100101 6
#1650
0!
07
b10100 9
#1655
1!
17
b110 /
b0 >
b11 <
b11 =
b10100110 6
#1660
0!
07
b1010 9
#1665
1!
17
b0 <
b0 =
b10100111 6
b110 3
#1670
0!
07
b10100 9
#1675
1!
17
b10100 >
b101010 0
b10101000 6
#1680
0!
07
b0 9
b11 :
#1685
1!
17
b101011 0
b10101001 6
b101010 4
#1690
0!
07
b1 :
#1695
1!
17
b101100 0
b10101010 6
b101011 4
#1700
0!
07
b1010 9
b0 :
#1705
1!
17
b11110 >
b101101 0
b10101011 6
b101100 4
#1710
0!
07
b10100 9
#1715
1!
17
b110010 >
b10101100 6
b101101 4
#1720
0!
07
b0 9
b11 :
#1725
1!
17
b110 =
b10101101 6
#1730
0!
07
b10100 9
b0 :
#1735
1!
17
b10101110 6
#1740
0!
07
b0 9
b1 :
#1745
1!
17
b10 =
b10101111 6
#1750
0!
07
b11 :
#1755
1!
17
b111 /
b0 >
b11 <
b11 =
b10110000 6
#1760
0!
07
b1 :
#1765
1!
17
b0 <
b0 =
b10110001 6
b111 3
#1770
0!
07
b1010 9
b0 :
#1775
1!
17
b1010 >
b101110 0
b10110010 6
#1780
0!
07
b0 9
b11 :
#1785
1!
17
b101111 0
b10110011 6
b101110 4
#1790
0!
07
b0 :
#1795
1!
17
b110000 0
b10110100 6
b101111 4
#1800
0!
07
b11 :
#1805
1!
17
b110001 0
b10110101 6
b110000 4
#1810
0!
07
b1 :
#1815
1!
17
b110010 0
b10110110 6
b110001 4
#1820
0!
07
#1825
1!
17
b110011 0
b10110111 6
b110010 4
#1830
0!
07
b1010 9
b0 :
#1835
1!
17
b10100 >
b110100 0
b10111000 6
b110011 4
#1840
0!
07
b0 9
b11 :
#1845
1!
17
b110101 0
b10111001 6
b110100 4
#1850
0!
07
b10100 9
b0 :
#1855
1!
17
b101000 >
b110110 0
b10111010 6
b110101 4
#1860
0!
07
b0 9
b1 :
#1865
1!
17
b101 =
b10111011 6
b110110 4
#1870
0!
07
b10100 9
b0 :
#1875
1!
17
b10111100 6
#1880
0!
07
#1885
1!
17
b1 =
b10111101 6
#1890
0!
07
b0 9
#1895
1!
17
b1001 .
b1010 >
b1 <
b11 =
b10111110 6
#1900
0!
07
b11 :
#1905
1!
17
b0 <
b10111111 6
b1001 2
#1910
0!
07
b1 :
#1915
1!
17
b11000000 6
#1920
0!
07
#1925
1!
17
b1010 ;
b100 =
b11000001 6
#1930
0!
07
#1935
1!
17
b11000010 6
b101 5
#1940
0!
07
b10100 9
b0 :
#1945
1!
17
b101 1
b0 >
b0 =
b0 ;
b11000011 6
#1950
0!
07
b0 9
b1 :
#1955
1!
17
b110111 0
b11000100 6
#1960
0!
07
b10100 9
b0 :
#1965
1!
17
b10100 >
b111000 0
b11000101 6
b110111 4
#1970
0!
07
b1010 9
#1975
1!
17
b11110 >
b111001 0
b11000110 6
b111000 4
#1980
0!
07
b0 9
b1 :
#1985
1!
17
b101 =
b11000111 6
b111001 4
#1990
0!
07
b1010 9
b0 :
#1995
1!
17
b11001000 6
#2000
0!
07
b10100 9
#2005
1!
17
b1 =
b11001001 6
#2010
0!
07
b0 9
b1 :
#2015
1!
17
b1010 .
b0 >
b1 <
b11 =
b11001010 6
#2020
0!
07
#2025
1!
17
b0 <
b0 =
b11001011 6
b1010 2
#2030
0!
07
#2035
1!
17
b111010 0
b11001100 6
#2040
0!
07
b10100 9
b0 :
#2045
1!
17
b10100 >
b111011 0
b11001101 6
b111010 4
#2050
0!
07
b0 9
b1 :
#2055
1!
17
b111100 0
b11001110 6
b111011 4
#2060
0!
07
b11 :
#2065
1!
17
b111101 0
b11001111 6
b111100 4
#2070
0!
07
b10100 9
b0 :
#2075
1!
17
b101000 >
b111110 0
b11010000 6
b111101 4
#2080
0!
07
b1010 9
#2085
1!
17
b110010 >
b11010001 6
b111110 4
#2090
0!
07
#2095
1!
17
b111100 >
b11010010 6
#2100
0!
07
b0 9
b11 :
#2105
1!
17
b110 =
b11010011 6
#2110
0!
07
#2115
1!
17
b11010100 6
#2120
0!
07
b1 :
#2125
1!
17
b10 =
b11010101 6
#2130
0!
07
b10100 9
b0 :
#2135
1!
17
b1000 /
b1010 >
b11 <
b11 =
b11010110 6
#2140
0!
07
b1010 9
#2145
1!
17
b0 <
b11010111 6
b1000 3
#2150
0!
07
b0 9
#2155
1!
17
b11011000 6
#2160
0!
07
b1010 9
#2165
1!
17
b1010 ;
b100 =
b11011001 6
#2170
0!
07
b10100 9
#2175
1!
17
b11011010 6
b110 5
#2180
0!
07
b0 9
#2185
1!
17
b110 1
b0 >
b0 =
b0 ;
b11011011 6
#2190
0!
07
b1010 9
#2195
1!
17
b1010 >
b111111 0
b11011100 6
#2200
0!
07
b0 9
#2205
1!
17
b1000000 0
b11011101 6
b111111 4
#2210
0!
07
b11 :
#2215
1!
17
b1000001 0
b11011110 6
b1000000 4
#2220
0!
07
b1010 9
b0 :
#2225
1!
17
b10100 >
b1000010 0
b11011111 6
b1000001 4
#2230
0!
07
b0 9
b11 :
#2235
1!
17
b1000011 0
b11100000 6
b1000010 4
#2240
0!
07
b0 :
#2245
1!
17
b1000100 0
b11100001 6
b1000011 4
#2250
0!
07
b10100 9
#2255
1!
17
b101000 >
b1000101 0
b11100010 6
b1000100 4
#2260
0!
07
b0 9
b11 :
#2265
1!
17
b11100011 6
b1000101 4
#2270
0!
07
#2275
1!
17
b11100100 6
#2280
0!
07
b1 :
#2285
1!
17
b101 =
b11100101 6
#2290
0!
07
#2295
1!
17
b11100110 6
#2300
0!
07
b0 :
#2305
1!
17
b1 =
b11100111 6
#2310
0!
07
b11 :
#2315
1!
17
b1011 .
b1010 >
b1 <
b11 =
b11101000 6
#2320
0!
07
b10100 9
b0 :
#2325
1!
17
b0 <
b11101001 6
b1011 2
#2330
0!
07
b1010 9
#2335
1!
17
b11101010 6
#2340
0!
07
b10100 9
#2345
1!
17
b1010 ;
b100 =
b11101011 6
#2350
0!
07
b0 9
b11 :
#2355
1!
17
b11101100 6
b111 5
#2360
0!
07
#2365
1!
17
b111 1
b0 >
b0 =
b0 ;
b11101101 6
#2370
0!
07
b0 :
#2375
1!
17
b1000110 0
b11101110 6
#2380
0!
07
b10100 9
#2385
1!
17
b10100 >
b1000111 0
b11101111 6
b1000110 4
#2390
0!
07
b0 9
b1 :
#2395
1!
17
b1001000 0
b11110000 6
b1000111 4
#2400
0!
07
b0 :
#2405
1!
17
b1001001 0
b11110001 6
b1001000 4
#2410
0!
07
b11 :
#2415
1!
17
b1001010 0
b11110010 6
b1001001 4
#2420
0!
07
#2425
1!
17
b1001011 0
b11110011 6
b1001010 4
#2430
0!
07
b1010 9
b0 :
#2435
1!
17
b11110 >
b1001100 0
b11110100 6
b1001011 4
#2440
0!
07
b0 9
b1 :
#2445
1!
17
b101 =
b11110101 6
b1001100 4
#2450
0!
07
b1010 9
b0 :
#2455
1!
17
b11110110 6
#2460
0!
07
b0 9
b1 :
#2465
1!
17
b1 =
b11110111 6
#2470
0!
07
b1010 9
b0 :
#2475
1!
17
b1100 .
b0 >
b1 <
b11 =
b11111000 6
#2480
0!
07
b10100 9
#2485
1!
17
b0 <
b0 =
b11111001 6
b1100 2
#2490
0!
07
b0 9
#2495
1!
17
b1001101 0
b11111010 6
#2500
0!
07
b10100 9
#2505
1!
17
b10100 >
b1001110 0
b11111011 6
b1001101 4
#2510
0!
07
b1010 9
#2515
1!
17
b11110 >
b1001111 0
b11111100 6
b1001110 4
#2520
0!
07
#2525
1!
17
b101000 >
b11111101 6
b1001111 4
#2530
0!
07
b0 9
b1 :
#2535
1!
17
b101 =
b11111110 6
#2540
0!
07
b1010 9
b0 :
#2545
1!
17
b11111111 6
#2550
0!
07
b0 9
#2555
1!
17
b1 =
b100000000 6
#2560
0!
07
b1 :
#2565
1!
17
b1101 .
b1010 >
b1 <
b11 =
b100000001 6
#2570
0!
07
#2575
1!
17
b0 <
b100000010 6
b1101 2
#2580
0!
07
b10100 9
b0 :
#2585
1!
17
b100000011 6
#2590
0!
07
b1010 9
#2595
1!
17
b1010 ;
b100 =
b100000100 6
#2600
0!
07
b0 9
#2605
1!
17
b100000101 6
b1000 5
#2610
0!
07
b1 :
#2615
1!
17
b1000 1
b0 >
b0 =
b0 ;
b100000110 6
#2620
0!
07
b0 :
#2625
1!
17
b1010000 0
b100000111 6
#2630
0!
07
b11 :
#2635
1!
17
b1010001 0
b100001000 6
b1010000 4
#2640
0!
07
b1 :
#2645
1!
17
b1010010 0
b100001001 6
b1010001 4
#2650
0!
07
b0 :
#2655
1!
17
b1010011 0
b100001010 6
b1010010 4
#2660
0!
07
b11 :
#2665
1!
17
b1010100 0
b100001011 6
b1010011 4
#2670
0!
07
b1010 9
b0 :
#2675
1!
17
b1010 >
b1010101 0
b100001100 6
b1010100 4
#2680
0!
07
b0 9
b11 :
#2685
1!
17
b1010110 0
b100001101 6
b1010101 4
#2690
0!
07
b10100 9
b0 :
#2695
1!
17
b11110 >
b1010111 0
b100001110 6
b1010110 4
#2700
0!
07
b0 9
b1 :
#2705
1!
17
b101 =
b100001111 6
b1010111 4
#2710
0!
07
b1010 9
b0 :
#2715
1!
17
b100010000 6
#2720
0!
07
b0 9
b11 :
#2725
1!
17
b1 =
b100010001 6
#2730
0!
07
b1010 9
b0 :
#2735
1!
17
b1110 .
b0 >
b1 <
b11 =
b100010010 6
#2740
0!
07
b0 9
b1 :
#2745
1!
17
b0 <
b0 =
b100010011 6
b1110 2
#2750
0!
07
b1010 9
b0 :
#2755
1!
17
b1010 >
b1011000 0
b100010100 6
#2760
0!
07
b10100 9
#2765
1!
17
b11110 >
b1011001 0
b100010101 6
b1011000 4
#2770
0!
07
b1010 9
#2775
1!
17
b101000 >
b100010110 6
b1011001 4
#2780
0!
07
b0 9
b1 :
#2785
1!
17
b101 =
b100010111 6
#2790
0!
07
b0 :
#2795
1!
17
b100011000 6
#2800
0!
07
b1 :
#2805
1!
17
b1 =
b100011001 6
#2810
0!
07
b0 :
#2815
1!
17
b1111 .
b1010 >
b1 <
b11 =
b100011010 6
#2820
0!
07
b10100 9
#2825
1!
17
b0 <
b100011011 6
b1111 2
#2830
0!
07
b0 9
#2835
1!
17
b100011100 6
#2840
0!
07
b10100 9
#2845
1!
17
b1010 ;
b100 =
b100011101 6
#2850
0!
07
b0 9
b11 :
#2855
1!
17
b100011110 6
b1001 5
#2860
0!
07
b1 :
#2865
1!
17
b1001 1
b0 >
b0 =
b0 ;
b100011111 6
#2870
0!
07
b0 :
#2875
1!
17
b1011010 0
b100100000 6
#2880
0!
07
#2885
1!
17
b1011011 0
b100100001 6
b1011010 4
#2890
0!
07
b11 :
#2895
1!
17
b1011100 0
b100100010 6
b1011011 4
#2900
0!
07
b0 :
#2905
1!
17
b1011101 0
b100100011 6
b1011100 4
#2910
0!
07
b10100 9
#2915
1!
17
b10100 >
b1011110 0
b100100100 6
b1011101 4
#2920
0!
07
b0 9
b1 :
#2925
1!
17
b1011111 0
b100100101 6
b1011110 4
#2930
0!
07
#2935
1!
17
b1100000 0
b100100110 6
b1011111 4
#2940
0!
07
b10100 9
b0 :
#2945
1!
17
b101000 >
b1100001 0
b100100111 6
b1100000 4
#2950
0!
07
#2955
1!
17
b111100 >
b100101000 6
b1100001 4
#2960
0!
07
b1010 9
#2965
1!
17
b1000110 >
b100101001 6
#2970
0!
07
b10100 9
#2975
1!
17
b1011010 >
b100101010 6
#2980
0!
07
b1010 9
#2985
1!
17
b1100100 >
b100101011 6
#2990
0!
07
#2995
1!
17
b1101110 >
b100101100 6
#3000
0!
07
b0 9
#3005
1!
17
b100101101 6
#3010
0!
07
b1 :
#3015
1!
17
b101 =
b100101110 6
#3020
0!
07
#3025
1!
17
b100101111 6
#3030
0!
07
b10100 9
b0 :
#3035
1!
17
b1 =
b100110000 6
#3040
0!
07
b0 9
b11 :
#3045
1!
17
b10000 .
b1010000 >
b1 <
b11 =
b100110001 6
#3050
0!
07
#3055
1!
17
b0 <
b0 =
b100110010 6
b10000 2
#3060
0!
07
b0 :
#3065
1!
17
b100110011 6
#3070
0!
07
b10100 9
#3075
1!
17
b1100100 >
b100110100 6
#3080
0!
07
b0 9
b11 :
#3085
1!
17
b110 =
b100110101 6
#3090
0!
07
b10100 9
b0 :
#3095
1!
17
b100110110 6
#3100
0!
07
#3105
1!
17
b10 =
b100110111 6
#3110
0!
07
b1010 9
#3115
1!
17
b1001 /
b110010 >
b11 <
b11 =
b100111000 6
#3120
0!
07
b10100 9
#3125
1!
17
b0 <
b0 =
b100111001 6
b1001 3
#3130
0!
07
b0 9
#3135
1!
17
b100111010 6
#3140
0!
07
b10100 9
#3145
1!
17
b1000110 >
b100111011 6
#3150
0!
07
#3155
1!
17
b1011010 >
b100111100 6
#3160
0!
07
b0 9
#3165
1!
17
b100111101 6
#3170
0!
07
b10100 9
#3175
1!
17
b1101110 >
b100111110 6
#3180
0!
07
#3185
1!
17
b10000010 >
b100111111 6
#3190
0!
07
#3195
1!
17
b10010110 >
b101000000 6
#3200
0!
07
b0 9
b1 :
#3205
1!
17
b101 =
b101000001 6
#3210
0!
07
b1010 9
b0 :
#3215
1!
17
b101000010 6
#3220
0!
07
b0 9
#3225
1!
17
b1 =
b101000011 6
#3230
0!
07
b1 :
#3235
1!
17
b10001 .
b1111000 >
b1 <
b11 =
b101000100 6
#3240
0!
07
b11 :
#3245
1!
17
b0 <
b0 =
b101000101 6
b10001 2
#3250
0!
07
b0 :
#3255
1!
17
b101000110 6
#3260
0!
07
b1010 9
#3265
1!
17
b10000010 >
b101000111 6
#3270
0!
07
b0 9
#3275
1!
17
b101001000 6
#3280
0!
07
b1010 9
#3285
1!
17
b10001100 >
b101001001 6
#3290
0!
07
b0 9
b1 :
#3295
1!
17
b101 =
b101001010 6
#3300
0!
07
#3305
1!
17
b101001011 6
#3310
0!
07
b10100 9
b0 :
#3315
1!
17
b1 =
b101001100 6
#3320
0!
07
b0 9
#3325
1!
17
b10010 .
b1101110 >
b1 <
b11 =
b101001101 6
#3330
0!
07
#3335
1!
17
b0 <
b0 =
b101001110 6
b10010 2
#3340
0!
07
b1 :
#3345
1!
17
b101 =
b101001111 6
#3350
0!
07
b0 :
#3355
1!
17
b101010000 6
#3360
0!
07
b11 :
#3365
1!
17
b1 =
b101010001 6
#3370
0!
07
b0 :
#3375
1!
17
b10011 .
b1010000 >
b1 <
b11 =
b101010010 6
#3380
0!
07
b11 :
#3385
1!
17
b0 <
b0 =
b101010011 6
b10011 2
#3390
0!
07
b1010 9
b0 :
#3395
1!
17
b1011010 >
b101010100 6
#3400
0!
07
b0 9
b1 :
#3405
1!
17
b101 =
b101010101 6
#3410
0!
07
b11 :
#3415
1!
17
b101010110 6
#3420
0!
07
#3425
1!
17
b1 =
b101010111 6
#3430
0!
07
b10100 9
b0 :
#3435
1!
17
b10100 .
b111100 >
b1 <
b11 =
b101011000 6
#3440
0!
07
b0 9
#3445
1!
17
b0 <
b0 =
b101011001 6
b10100 2
#3450
0!
07
#3455
1!
17
b101011010 6
#3460
0!
07
b1 :
#3465
1!
17
b101 =
b101011011 6
#3470
0!
07
#3475
1!
17
b101011100 6
#3480
0!
07
b1010 9
b0 :
#3485
1!
17
b1 =
b101011101 6
#3490
0!
07
b0 9
#3495
1!
17
b10101 .
b11110 >
b1 <
b11 =
b101011110 6
#3500
0!
07
b1 :
#3505
1!
17
b0 <
b0 =
b101011111 6
b10101 2
#3510
0!
07
b0 :
#3515
1!
17
b101100000 6
#3520
0!
07
#3525
1!
17
b101100001 6
#3530
0!
07
b10100 9
#3535
1!
17
b110010 >
b101100010 6
